{"failedCount":4,"prefixedPath":"src\/test\/java\/api.feature","packageQualifiedName":"src.test.java.api","loopIndex":-1,"relativePath":"src\/test\/java\/api.feature","scenarioResults":[{"sectionIndex":0,"stepResults":[{"result":{"nanos":133123900,"millis":133.1239,"status":"passed"},"step":{"line":5,"prefix":"Given","index":0,"text":"url 'https:\/\/reqres.in\/api\/users'"}},{"result":{"nanos":2103124400,"millis":2103.1244,"status":"passed"},"step":{"line":6,"prefix":"When","index":1,"text":"method GET"},"stepLog":"13:38:36.702 request:\n1 > GET https:\/\/reqres.in\/api\/users\n1 > Host: reqres.in\n1 > Connection: Keep-Alive\n1 > User-Agent: Apache-HttpClient\/4.5.13 (Java\/17.0.7)\n1 > Accept-Encoding: gzip,deflate\n\n\n13:38:37.580 response time in milliseconds: 872\n1 < 200\n1 < Date: Thu, 09 Nov 2023 08:08:35 GMT\n1 < Content-Type: application\/json; charset=utf-8\n1 < Transfer-Encoding: chunked\n1 < Connection: keep-alive\n1 < X-Powered-By: Express\n1 < Access-Control-Allow-Origin: *\n1 < Etag: W\/\"3e4-2RLXvr5wTg9YQ6aH95CkYoFNuO8\"\n1 < Via: 1.1 vegur\n1 < Cache-Control: max-age=14400\n1 < CF-Cache-Status: HIT\n1 < Age: 2071\n1 < Report-To: {\"endpoints\":[{\"url\":\"https:\\\/\\\/a.nel.cloudflare.com\\\/report\\\/v3?s=biqmuSYea4UNignczDDrIUo9fxEhw%2FhrDdC9ZyEIveFmgoZmNOjxjgiiBVgKLEsz6x9tC3CNkgftIV2Q6e%2FAOX8Qkc7%2FQToDTdLaA6ZQXiHp0dmb4IdEUWHuWQ%3D%3D\"}],\"group\":\"cf-nel\",\"max_age\":604800}\n1 < NEL: {\"success_fraction\":0,\"report_to\":\"cf-nel\",\"max_age\":604800}\n1 < Vary: Accept-Encoding\n1 < Server: cloudflare\n1 < CF-RAY: 823491955e5589bf-SIN\n{\"page\":1,\"per_page\":6,\"total\":12,\"total_pages\":2,\"data\":[{\"id\":1,\"email\":\"george.bluth@reqres.in\",\"first_name\":\"George\",\"last_name\":\"Bluth\",\"avatar\":\"https:\/\/reqres.in\/img\/faces\/1-image.jpg\"},{\"id\":2,\"email\":\"janet.weaver@reqres.in\",\"first_name\":\"Janet\",\"last_name\":\"Weaver\",\"avatar\":\"https:\/\/reqres.in\/img\/faces\/2-image.jpg\"},{\"id\":3,\"email\":\"emma.wong@reqres.in\",\"first_name\":\"Emma\",\"last_name\":\"Wong\",\"avatar\":\"https:\/\/reqres.in\/img\/faces\/3-image.jpg\"},{\"id\":4,\"email\":\"eve.holt@reqres.in\",\"first_name\":\"Eve\",\"last_name\":\"Holt\",\"avatar\":\"https:\/\/reqres.in\/img\/faces\/4-image.jpg\"},{\"id\":5,\"email\":\"charles.morris@reqres.in\",\"first_name\":\"Charles\",\"last_name\":\"Morris\",\"avatar\":\"https:\/\/reqres.in\/img\/faces\/5-image.jpg\"},{\"id\":6,\"email\":\"tracey.ramos@reqres.in\",\"first_name\":\"Tracey\",\"last_name\":\"Ramos\",\"avatar\":\"https:\/\/reqres.in\/img\/faces\/6-image.jpg\"}],\"support\":{\"url\":\"https:\/\/reqres.in\/#support-heading\",\"text\":\"To keep ReqRes free, contributions towards server costs are appreciated!\"}}\n\n"},{"result":{"nanos":151700,"millis":0.1517,"status":"passed"},"step":{"line":7,"prefix":"Then","index":2,"text":"status 200"}}],"executorName":"main","line":4,"name":"Get list of users","description":"","durationMillis":2236.4,"startTime":1699517315454,"failed":false,"refId":"[1:4]","endTime":1699517317717,"exampleIndex":-1},{"sectionIndex":1,"stepResults":[{"result":{"nanos":1185200,"millis":1.1852,"status":"passed"},"step":{"line":10,"prefix":"Given","index":0,"text":"url 'https:\/\/reqres.in\/api\/users'"}},{"result":{"nanos":57204400,"errorMessage":"js failed:\n>>>>\n01: request{\"name\": \"morpheus\", \"job\": \"Engineer\"}\n<<<<\norg.graalvm.polyglot.PolyglotException: SyntaxError: Unnamed:1:7 Expected ; but found {\r\nrequest{\"name\": \"morpheus\", \"job\": \"Engineer\"}\r\n       ^\n\n- org.graalvm.polyglot.Context.eval(Context.java:425)\n- com.intuit.karate.graal.JsEngine.evalForValue(JsEngine.java:139)\n- com.intuit.karate.graal.JsEngine.eval(JsEngine.java:135)\n- com.intuit.karate.core.ScenarioEngine.evalJs(ScenarioEngine.java:1190)\n- com.intuit.karate.ScenarioActions.eval(ScenarioActions.java:388)\n- java.base\/jdk.internal.reflect.NativeMethodAccessorImpl.invoke0(Native Method)\n- java.base\/jdk.internal.reflect.NativeMethodAccessorImpl.invoke(NativeMethodAccessorImpl.java:77)\n\nsrc\/test\/java\/api.feature:11","millis":57.2044,"status":"failed"},"step":{"line":11,"prefix":"And","index":1,"text":"request{\"name\": \"morpheus\", \"job\": \"Engineer\"}"},"stepLog":"13:38:37.800 src\/test\/java\/api.feature:11\nAnd request{\"name\": \"morpheus\", \"job\": \"Engineer\"}\njs failed:\n>>>>\n01: request{\"name\": \"morpheus\", \"job\": \"Engineer\"}\n<<<<\norg.graalvm.polyglot.PolyglotException: SyntaxError: Unnamed:1:7 Expected ; but found {\r\nrequest{\"name\": \"morpheus\", \"job\": \"Engineer\"}\r\n       ^\n\n- org.graalvm.polyglot.Context.eval(Context.java:425)\n- com.intuit.karate.graal.JsEngine.evalForValue(JsEngine.java:139)\n- com.intuit.karate.graal.JsEngine.eval(JsEngine.java:135)\n- com.intuit.karate.core.ScenarioEngine.evalJs(ScenarioEngine.java:1190)\n- com.intuit.karate.ScenarioActions.eval(ScenarioActions.java:388)\n- java.base\/jdk.internal.reflect.NativeMethodAccessorImpl.invoke0(Native Method)\n- java.base\/jdk.internal.reflect.NativeMethodAccessorImpl.invoke(NativeMethodAccessorImpl.java:77)\n\nsrc\/test\/java\/api.feature:11\n"},{"result":{"nanos":0,"millis":0.0,"status":"skipped"},"step":{"line":12,"prefix":"When","index":2,"text":"method POST"}},{"result":{"nanos":0,"millis":0.0,"status":"skipped"},"step":{"line":13,"prefix":"Then","index":3,"text":"status 201"}},{"result":{"nanos":0,"millis":0.0,"status":"skipped"},"step":{"line":14,"prefix":"And","index":4,"text":"match responce.data name= \"morpheus\""}},{"result":{"nanos":0,"millis":0.0,"status":"skipped"},"step":{"line":15,"prefix":"And","index":5,"text":"match responce.data job = \"leader\""}}],"line":9,"description":"","durationMillis":58.3896,"failed":true,"error":"js failed:\n>>>>\n01: request{\"name\": \"morpheus\", \"job\": \"Engineer\"}\n<<<<\norg.graalvm.polyglot.PolyglotException: SyntaxError: Unnamed:1:7 Expected ; but found {\r\nrequest{\"name\": \"morpheus\", \"job\": \"Engineer\"}\r\n       ^\n\n- org.graalvm.polyglot.Context.eval(Context.java:425)\n- com.intuit.karate.graal.JsEngine.evalForValue(JsEngine.java:139)\n- com.intuit.karate.graal.JsEngine.eval(JsEngine.java:135)\n- com.intuit.karate.core.ScenarioEngine.evalJs(ScenarioEngine.java:1190)\n- com.intuit.karate.ScenarioActions.eval(ScenarioActions.java:388)\n- java.base\/jdk.internal.reflect.NativeMethodAccessorImpl.invoke0(Native Method)\n- java.base\/jdk.internal.reflect.NativeMethodAccessorImpl.invoke(NativeMethodAccessorImpl.java:77)\n\nsrc\/test\/java\/api.feature:11","executorName":"main","name":"Create a new user","startTime":1699517317741,"refId":"[2:9]","endTime":1699517317801,"exampleIndex":-1},{"sectionIndex":2,"stepResults":[{"result":{"nanos":6204400,"millis":6.2044,"status":"passed"},"step":{"line":19,"prefix":"Given","index":0,"text":"url 'https:\/\/reqres.in\/api\/users\/2'"}},{"result":{"nanos":237513000,"millis":237.513,"status":"passed"},"step":{"line":20,"prefix":"When","index":1,"text":"method GET"},"stepLog":"13:38:37.828 request:\n1 > GET https:\/\/reqres.in\/api\/users\/2\n1 > Host: reqres.in\n1 > Connection: Keep-Alive\n1 > User-Agent: Apache-HttpClient\/4.5.13 (Java\/17.0.7)\n1 > Accept-Encoding: gzip,deflate\n\n\n13:38:38.059 response time in milliseconds: 231\n1 < 200\n1 < Date: Thu, 09 Nov 2023 08:08:35 GMT\n1 < Content-Type: application\/json; charset=utf-8\n1 < Transfer-Encoding: chunked\n1 < Connection: keep-alive\n1 < Report-To: {\"group\":\"heroku-nel\",\"max_age\":3600,\"endpoints\":[{\"url\":\"https:\/\/nel.heroku.com\/reports?ts=1699465080&sid=c4c9725f-1ab0-44d8-820f-430df2718e11&s=xdIsyGiauupgaWLGgxDFWupAsSKaYpJa05dGhFObqHk%3D\"}]}\n1 < Reporting-Endpoints: heroku-nel=https:\/\/nel.heroku.com\/reports?ts=1699465080&sid=c4c9725f-1ab0-44d8-820f-430df2718e11&s=xdIsyGiauupgaWLGgxDFWupAsSKaYpJa05dGhFObqHk%3D\n1 < Nel: {\"report_to\":\"heroku-nel\",\"max_age\":3600,\"success_fraction\":0.005,\"failure_fraction\":0.05,\"response_headers\":[\"Via\"]}\n1 < X-Powered-By: Express\n1 < Access-Control-Allow-Origin: *\n1 < Etag: W\/\"118-pbdwwFo9SKNhD3Lx5iHJyngpq00\"\n1 < Via: 1.1 vegur\n1 < Cache-Control: max-age=14400\n1 < CF-Cache-Status: HIT\n1 < Age: 1432\n1 < Vary: Accept-Encoding\n1 < Server: cloudflare\n1 < CF-RAY: 823491989a6a4cd7-SIN\n{\"data\":{\"id\":2,\"email\":\"janet.weaver@reqres.in\",\"first_name\":\"Janet\",\"last_name\":\"Weaver\",\"avatar\":\"https:\/\/reqres.in\/img\/faces\/2-image.jpg\"},\"support\":{\"url\":\"https:\/\/reqres.in\/#support-heading\",\"text\":\"To keep ReqRes free, contributions towards server costs are appreciated!\"}}\n\n"},{"result":{"nanos":21300,"millis":0.0213,"status":"passed"},"step":{"line":21,"prefix":"Then","index":2,"text":"status 200"}},{"result":{"nanos":1428700,"errorMessage":"syntax error, expected '==' for match\nsrc\/test\/java\/api.feature:22","millis":1.4287,"status":"failed"},"step":{"line":22,"prefix":"And","index":3,"text":"match responce.data id = 2"},"stepLog":"13:38:38.064 src\/test\/java\/api.feature:22\nAnd match responce.data id = 2\nsyntax error, expected '==' for match\nsrc\/test\/java\/api.feature:22\n"}],"line":18,"description":"","durationMillis":245.1674,"failed":true,"error":"syntax error, expected '==' for match\nsrc\/test\/java\/api.feature:22","executorName":"main","name":"Get single user details","startTime":1699517317818,"refId":"[3:18]","endTime":1699517318064,"exampleIndex":-1},{"sectionIndex":3,"stepResults":[{"result":{"nanos":2342900,"millis":2.3429,"status":"passed"},"step":{"line":26,"prefix":"Given","index":0,"text":"url 'https:\/\/reqres.in\/api\/unknown\/'"}},{"result":{"nanos":803100,"millis":0.8031,"status":"passed"},"step":{"line":27,"prefix":"And","index":1,"text":"path '30'"}},{"result":{"nanos":461991100,"millis":461.9911,"status":"passed"},"step":{"line":28,"prefix":"When","index":2,"text":"method GET"},"stepLog":"13:38:38.078 request:\n1 > GET https:\/\/reqres.in\/api\/unknown\/30\n1 > Host: reqres.in\n1 > Connection: Keep-Alive\n1 > User-Agent: Apache-HttpClient\/4.5.13 (Java\/17.0.7)\n1 > Accept-Encoding: gzip,deflate\n\n\n13:38:38.535 response time in milliseconds: 457\n1 < 404\n1 < Date: Thu, 09 Nov 2023 08:08:36 GMT\n1 < Content-Type: application\/json; charset=utf-8\n1 < Content-Length: 2\n1 < Connection: keep-alive\n1 < Report-To: {\"group\":\"heroku-nel\",\"max_age\":3600,\"endpoints\":[{\"url\":\"https:\/\/nel.heroku.com\/reports?ts=1699517316&sid=c4c9725f-1ab0-44d8-820f-430df2718e11&s=wvZ3A3XtxQvJy5sh%2Fr8IZXWg8vioKjrDWWxZa5StcJY%3D\"}]}\n1 < Reporting-Endpoints: heroku-nel=https:\/\/nel.heroku.com\/reports?ts=1699517316&sid=c4c9725f-1ab0-44d8-820f-430df2718e11&s=wvZ3A3XtxQvJy5sh%2Fr8IZXWg8vioKjrDWWxZa5StcJY%3D\n1 < Nel: {\"report_to\":\"heroku-nel\",\"max_age\":3600,\"success_fraction\":0.005,\"failure_fraction\":0.05,\"response_headers\":[\"Via\"]}\n1 < X-Powered-By: Express\n1 < Access-Control-Allow-Origin: *\n1 < Etag: W\/\"2-vyGp6PvFo4RvsFtPoIWeCReyIC8\"\n1 < Via: 1.1 vegur\n1 < Cache-Control: max-age=14400\n1 < CF-Cache-Status: EXPIRED\n1 < Vary: Accept-Encoding\n1 < Server: cloudflare\n1 < CF-RAY: 823491997bb83a4d-BOM\n{}\n\n"},{"result":{"nanos":19800,"millis":0.0198,"status":"passed"},"step":{"line":29,"prefix":"Then","index":3,"text":"status 404"}}],"executorName":"main","line":25,"name":"Get user details-user not found","description":"","durationMillis":465.1569,"startTime":1699517318071,"failed":false,"refId":"[4:25]","endTime":1699517318538,"exampleIndex":-1},{"sectionIndex":4,"stepResults":[{"result":{"nanos":473600,"millis":0.4736,"status":"passed"},"step":{"line":32,"prefix":"Given","index":0,"text":"url 'https:\/\/reqres.in\/api\/unknown\/'"}},{"result":{"nanos":627300,"millis":0.6273,"status":"passed"},"step":{"line":33,"prefix":"And","index":1,"text":"path '2'"}},{"result":{"nanos":116212800,"millis":116.2128,"status":"passed"},"step":{"line":34,"prefix":"When","index":2,"text":"method GET"},"stepLog":"13:38:38.547 request:\n1 > GET https:\/\/reqres.in\/api\/unknown\/2\n1 > Host: reqres.in\n1 > Connection: Keep-Alive\n1 > User-Agent: Apache-HttpClient\/4.5.13 (Java\/17.0.7)\n1 > Accept-Encoding: gzip,deflate\n\n\n13:38:38.659 response time in milliseconds: 112\n1 < 200\n1 < Date: Thu, 09 Nov 2023 08:08:36 GMT\n1 < Content-Type: application\/json; charset=utf-8\n1 < Transfer-Encoding: chunked\n1 < Connection: keep-alive\n1 < Report-To: {\"group\":\"heroku-nel\",\"max_age\":3600,\"endpoints\":[{\"url\":\"https:\/\/nel.heroku.com\/reports?ts=1698651436&sid=c4c9725f-1ab0-44d8-820f-430df2718e11&s=zVitSvNO6OyK2YLeaJI6eRCtVr91a%2BDwtiGWUdTohRs%3D\"}]}\n1 < Reporting-Endpoints: heroku-nel=https:\/\/nel.heroku.com\/reports?ts=1698651436&sid=c4c9725f-1ab0-44d8-820f-430df2718e11&s=zVitSvNO6OyK2YLeaJI6eRCtVr91a%2BDwtiGWUdTohRs%3D\n1 < Nel: {\"report_to\":\"heroku-nel\",\"max_age\":3600,\"success_fraction\":0.005,\"failure_fraction\":0.05,\"response_headers\":[\"Via\"]}\n1 < X-Powered-By: Express\n1 < Access-Control-Allow-Origin: *\n1 < Etag: W\/\"e8-ov4wWh4\/OY1IMQMqWgskYtOFnVs\"\n1 < Via: 1.1 vegur\n1 < Cache-Control: max-age=14400\n1 < CF-Cache-Status: HIT\n1 < Age: 5885\n1 < Vary: Accept-Encoding\n1 < Server: cloudflare\n1 < CF-RAY: 8234919c7f1b41c9-BOM\n{\"data\":{\"id\":2,\"name\":\"fuchsia rose\",\"year\":2001,\"color\":\"#C74375\",\"pantone_value\":\"17-2031\"},\"support\":{\"url\":\"https:\/\/reqres.in\/#support-heading\",\"text\":\"To keep ReqRes free, contributions towards server costs are appreciated!\"}}\n\n"},{"result":{"nanos":19500,"millis":0.0195,"status":"passed"},"step":{"line":35,"prefix":"Then","index":3,"text":"status 200"}}],"executorName":"main","line":31,"name":"Get user print the response","description":"","durationMillis":117.3332,"startTime":1699517318544,"failed":false,"refId":"[5:31]","endTime":1699517318661,"exampleIndex":-1},{"sectionIndex":5,"stepResults":[{"result":{"nanos":262800,"millis":0.2628,"status":"passed"},"step":{"line":38,"prefix":"Given","index":0,"text":"url 'https:\/\/reqres.in\/api\/users\/2'"}},{"result":{"nanos":57939300,"millis":57.9393,"status":"passed"},"step":{"line":39,"prefix":"And","index":1,"text":"request {\"name\": \"Allen\"}"}},{"result":{"nanos":758260500,"millis":758.2605,"status":"passed"},"step":{"line":40,"prefix":"When","index":2,"text":"method PUT"},"stepLog":"13:38:38.879 request:\n1 > PUT https:\/\/reqres.in\/api\/users\/2\n1 > Content-Type: application\/json; charset=UTF-8\n1 > Content-Length: 16\n1 > Host: reqres.in\n1 > Connection: Keep-Alive\n1 > User-Agent: Apache-HttpClient\/4.5.13 (Java\/17.0.7)\n1 > Accept-Encoding: gzip,deflate\n{\"name\":\"Allen\"}\n\n13:38:39.487 response time in milliseconds: 607\n1 < 200\n1 < Date: Thu, 09 Nov 2023 08:08:37 GMT\n1 < Content-Type: application\/json; charset=utf-8\n1 < Transfer-Encoding: chunked\n1 < Connection: keep-alive\n1 < Report-To: {\"group\":\"heroku-nel\",\"max_age\":3600,\"endpoints\":[{\"url\":\"https:\/\/nel.heroku.com\/reports?ts=1699517317&sid=c4c9725f-1ab0-44d8-820f-430df2718e11&s=YcsBD%2BddhHe2gANErez55IX%2FjjnFJYIe3T6%2FuBZz3Zc%3D\"}]}\n1 < Reporting-Endpoints: heroku-nel=https:\/\/nel.heroku.com\/reports?ts=1699517317&sid=c4c9725f-1ab0-44d8-820f-430df2718e11&s=YcsBD%2BddhHe2gANErez55IX%2FjjnFJYIe3T6%2FuBZz3Zc%3D\n1 < Nel: {\"report_to\":\"heroku-nel\",\"max_age\":3600,\"success_fraction\":0.005,\"failure_fraction\":0.05,\"response_headers\":[\"Via\"]}\n1 < X-Powered-By: Express\n1 < Access-Control-Allow-Origin: *\n1 < Etag: W\/\"37-lVt542wfz+0kMBWVeTjT878iUDA\"\n1 < Via: 1.1 vegur\n1 < CF-Cache-Status: DYNAMIC\n1 < Vary: Accept-Encoding\n1 < Server: cloudflare\n1 < CF-RAY: 8234919f4bea4bce-SIN\n{\"name\":\"Allen\",\"updatedAt\":\"2023-11-09T08:08:37.268Z\"}\n\n"},{"result":{"nanos":16300,"millis":0.0163,"status":"passed"},"step":{"line":41,"prefix":"Then","index":3,"text":"status 200"}},{"result":{"nanos":61500,"errorMessage":"syntax error, expected '==' for match\nsrc\/test\/java\/api.feature:42","millis":0.0615,"status":"failed"},"step":{"line":42,"prefix":"And","index":4,"text":"match responce.data name = 'Allen'"},"stepLog":"13:38:39.489 src\/test\/java\/api.feature:42\nAnd match responce.data name = 'Allen'\nsyntax error, expected '==' for match\nsrc\/test\/java\/api.feature:42\n"},{"result":{"nanos":0,"millis":0.0,"status":"skipped"},"step":{"line":44,"prefix":"*","index":5,"text":"print response"}}],"line":37,"description":"","durationMillis":816.5404,"failed":true,"error":"syntax error, expected '==' for match\nsrc\/test\/java\/api.feature:42","executorName":"main","name":"Update user details","startTime":1699517318671,"refId":"[6:37]","endTime":1699517319489,"exampleIndex":-1},{"sectionIndex":6,"stepResults":[{"result":{"nanos":432000,"millis":0.432,"status":"passed"},"step":{"line":47,"prefix":"Given","index":0,"text":"url 'https:\/\/reqres.in\/api\/unknown\/'"}},{"result":{"nanos":529000,"millis":0.529,"status":"passed"},"step":{"line":48,"prefix":"And","index":1,"text":"path '1'"}},{"result":{"nanos":483302800,"millis":483.3028,"status":"passed"},"step":{"line":49,"prefix":"When","index":2,"text":"method GET"},"stepLog":"13:38:39.499 request:\n1 > GET https:\/\/reqres.in\/api\/unknown\/1\n1 > Host: reqres.in\n1 > Connection: Keep-Alive\n1 > User-Agent: Apache-HttpClient\/4.5.13 (Java\/17.0.7)\n1 > Accept-Encoding: gzip,deflate\n\n\n13:38:39.978 response time in milliseconds: 478\n1 < 200\n1 < Date: Thu, 09 Nov 2023 08:08:37 GMT\n1 < Content-Type: application\/json; charset=utf-8\n1 < Transfer-Encoding: chunked\n1 < Connection: keep-alive\n1 < Report-To: {\"group\":\"heroku-nel\",\"max_age\":3600,\"endpoints\":[{\"url\":\"https:\/\/nel.heroku.com\/reports?ts=1699517317&sid=c4c9725f-1ab0-44d8-820f-430df2718e11&s=YcsBD%2BddhHe2gANErez55IX%2FjjnFJYIe3T6%2FuBZz3Zc%3D\"}]}\n1 < Reporting-Endpoints: heroku-nel=https:\/\/nel.heroku.com\/reports?ts=1699517317&sid=c4c9725f-1ab0-44d8-820f-430df2718e11&s=YcsBD%2BddhHe2gANErez55IX%2FjjnFJYIe3T6%2FuBZz3Zc%3D\n1 < Nel: {\"report_to\":\"heroku-nel\",\"max_age\":3600,\"success_fraction\":0.005,\"failure_fraction\":0.05,\"response_headers\":[\"Via\"]}\n1 < X-Powered-By: Express\n1 < Access-Control-Allow-Origin: *\n1 < Etag: W\/\"e4-2W7ZNEqb4DWjJCUXzZoMFmGhgio\"\n1 < Via: 1.1 vegur\n1 < Cache-Control: max-age=14400\n1 < CF-Cache-Status: MISS\n1 < Vary: Accept-Encoding\n1 < Server: cloudflare\n1 < CF-RAY: 823491a27a24471f-BOM\n{\"data\":{\"id\":1,\"name\":\"cerulean\",\"year\":2000,\"color\":\"#98B2D1\",\"pantone_value\":\"15-4020\"},\"support\":{\"url\":\"https:\/\/reqres.in\/#support-heading\",\"text\":\"To keep ReqRes free, contributions towards server costs are appreciated!\"}}\n\n"},{"result":{"nanos":20500,"millis":0.0205,"status":"passed"},"step":{"line":50,"prefix":"Then","index":3,"text":"status 200"}},{"result":{"nanos":169639900,"millis":169.6399,"status":"passed"},"step":{"line":51,"prefix":"*","index":4,"text":"print response"},"stepLog":"13:38:40.149 [print] {\n  \"data\": {\n    \"id\": 1,\n    \"name\": \"cerulean\",\n    \"year\": 2000,\n    \"color\": \"#98B2D1\",\n    \"pantone_value\": \"15-4020\"\n  },\n  \"support\": {\n    \"url\": \"https:\/\/reqres.in\/#support-heading\",\n    \"text\": \"To keep ReqRes free, contributions towards server costs are appreciated!\"\n  }\n}\n \n"},{"result":{"nanos":24972200,"millis":24.9722,"status":"passed"},"step":{"line":52,"prefix":"*","index":5,"text":"def jsonResponse = response"}},{"result":{"nanos":1249200,"millis":1.2492,"status":"passed"},"step":{"line":53,"prefix":"*","index":6,"text":"def actualName = jsonResponse.data.name"}},{"result":{"nanos":1915300,"millis":1.9153,"status":"passed"},"step":{"line":54,"prefix":"*","index":7,"text":"print actualName"},"stepLog":"13:38:40.178 [print] cerulean \n"}],"executorName":"main","line":46,"name":"Get user details and print the name using json","description":"","durationMillis":682.0609,"startTime":1699517319495,"failed":false,"refId":"[7:46]","endTime":1699517320178,"exampleIndex":-1},{"sectionIndex":7,"stepResults":[{"result":{"nanos":271600,"millis":0.2716,"status":"passed"},"step":{"line":57,"prefix":"Given","index":0,"text":"url 'https:\/\/reqres.in\/api\/users\/2'"}},{"result":{"nanos":335430400,"millis":335.4304,"status":"passed"},"step":{"line":58,"prefix":"When","index":1,"text":"method GET"},"stepLog":"13:38:40.194 request:\n1 > GET https:\/\/reqres.in\/api\/users\/2\n1 > Host: reqres.in\n1 > Connection: Keep-Alive\n1 > User-Agent: Apache-HttpClient\/4.5.13 (Java\/17.0.7)\n1 > Accept-Encoding: gzip,deflate\n\n\n13:38:40.525 response time in milliseconds: 330\n1 < 200\n1 < Date: Thu, 09 Nov 2023 08:08:38 GMT\n1 < Content-Type: application\/json; charset=utf-8\n1 < Transfer-Encoding: chunked\n1 < Connection: keep-alive\n1 < Report-To: {\"group\":\"heroku-nel\",\"max_age\":3600,\"endpoints\":[{\"url\":\"https:\/\/nel.heroku.com\/reports?ts=1699465080&sid=c4c9725f-1ab0-44d8-820f-430df2718e11&s=xdIsyGiauupgaWLGgxDFWupAsSKaYpJa05dGhFObqHk%3D\"}]}\n1 < Reporting-Endpoints: heroku-nel=https:\/\/nel.heroku.com\/reports?ts=1699465080&sid=c4c9725f-1ab0-44d8-820f-430df2718e11&s=xdIsyGiauupgaWLGgxDFWupAsSKaYpJa05dGhFObqHk%3D\n1 < Nel: {\"report_to\":\"heroku-nel\",\"max_age\":3600,\"success_fraction\":0.005,\"failure_fraction\":0.05,\"response_headers\":[\"Via\"]}\n1 < X-Powered-By: Express\n1 < Access-Control-Allow-Origin: *\n1 < Etag: W\/\"118-pbdwwFo9SKNhD3Lx5iHJyngpq00\"\n1 < Via: 1.1 vegur\n1 < Cache-Control: max-age=14400\n1 < CF-Cache-Status: HIT\n1 < Age: 1435\n1 < Vary: Accept-Encoding\n1 < Server: cloudflare\n1 < CF-RAY: 823491a809f58977-SIN\n{\"data\":{\"id\":2,\"email\":\"janet.weaver@reqres.in\",\"first_name\":\"Janet\",\"last_name\":\"Weaver\",\"avatar\":\"https:\/\/reqres.in\/img\/faces\/2-image.jpg\"},\"support\":{\"url\":\"https:\/\/reqres.in\/#support-heading\",\"text\":\"To keep ReqRes free, contributions towards server costs are appreciated!\"}}\n\n"},{"result":{"nanos":15600,"millis":0.0156,"status":"passed"},"step":{"line":59,"prefix":"Then","index":2,"text":"status 200"}},{"result":{"nanos":954000,"millis":0.954,"status":"passed"},"step":{"line":60,"prefix":"*","index":3,"text":"print response"},"stepLog":"13:38:40.527 [print] {\n  \"data\": {\n    \"id\": 2,\n    \"email\": \"janet.weaver@reqres.in\",\n    \"first_name\": \"Janet\",\n    \"last_name\": \"Weaver\",\n    \"avatar\": \"https:\/\/reqres.in\/img\/faces\/2-image.jpg\"\n  },\n  \"support\": {\n    \"url\": \"https:\/\/reqres.in\/#support-heading\",\n    \"text\": \"To keep ReqRes free, contributions towards server costs are appreciated!\"\n  }\n}\n \n"},{"result":{"nanos":1963300,"millis":1.9633,"status":"passed"},"step":{"line":61,"prefix":"*","index":4,"text":"def jsonResponse = response"}},{"result":{"nanos":1909400,"millis":1.9094,"status":"passed"},"step":{"line":62,"prefix":"*","index":5,"text":"def email = jsonResponse.data.email"}},{"result":{"nanos":1780800,"millis":1.7808,"status":"passed"},"step":{"line":63,"prefix":"*","index":6,"text":"print email"},"stepLog":"13:38:40.532 [print] janet.weaver@reqres.in \n"},{"result":{"nanos":12989500,"millis":12.9895,"status":"passed"},"step":{"line":64,"prefix":"*","index":7,"text":"match email == 'janet.weaver@reqres.in'"}}],"executorName":"main","line":56,"name":"Get user details and verify user email using json path","description":"","durationMillis":355.3146,"startTime":1699517320190,"failed":false,"refId":"[8:56]","endTime":1699517320546,"exampleIndex":-1},{"sectionIndex":8,"stepResults":[{"result":{"nanos":321900,"millis":0.3219,"status":"passed"},"step":{"line":67,"prefix":"Given","index":0,"text":"url 'https:\/\/reqres.in\/api\/users\/2'"}},{"result":{"nanos":223515300,"millis":223.5153,"status":"passed"},"step":{"line":68,"prefix":"When","index":1,"text":"method GET"},"stepLog":"13:38:40.552 request:\n1 > GET https:\/\/reqres.in\/api\/users\/2\n1 > Host: reqres.in\n1 > Connection: Keep-Alive\n1 > User-Agent: Apache-HttpClient\/4.5.13 (Java\/17.0.7)\n1 > Accept-Encoding: gzip,deflate\n\n\n13:38:40.772 response time in milliseconds: 220\n1 < 200\n1 < Date: Thu, 09 Nov 2023 08:08:38 GMT\n1 < Content-Type: application\/json; charset=utf-8\n1 < Transfer-Encoding: chunked\n1 < Connection: keep-alive\n1 < Report-To: {\"group\":\"heroku-nel\",\"max_age\":3600,\"endpoints\":[{\"url\":\"https:\/\/nel.heroku.com\/reports?ts=1699465080&sid=c4c9725f-1ab0-44d8-820f-430df2718e11&s=xdIsyGiauupgaWLGgxDFWupAsSKaYpJa05dGhFObqHk%3D\"}]}\n1 < Reporting-Endpoints: heroku-nel=https:\/\/nel.heroku.com\/reports?ts=1699465080&sid=c4c9725f-1ab0-44d8-820f-430df2718e11&s=xdIsyGiauupgaWLGgxDFWupAsSKaYpJa05dGhFObqHk%3D\n1 < Nel: {\"report_to\":\"heroku-nel\",\"max_age\":3600,\"success_fraction\":0.005,\"failure_fraction\":0.05,\"response_headers\":[\"Via\"]}\n1 < X-Powered-By: Express\n1 < Access-Control-Allow-Origin: *\n1 < Etag: W\/\"118-pbdwwFo9SKNhD3Lx5iHJyngpq00\"\n1 < Via: 1.1 vegur\n1 < Cache-Control: max-age=14400\n1 < CF-Cache-Status: HIT\n1 < Age: 1435\n1 < Vary: Accept-Encoding\n1 < Server: cloudflare\n1 < CF-RAY: 823491a99fe24c41-SIN\n{\"data\":{\"id\":2,\"email\":\"janet.weaver@reqres.in\",\"first_name\":\"Janet\",\"last_name\":\"Weaver\",\"avatar\":\"https:\/\/reqres.in\/img\/faces\/2-image.jpg\"},\"support\":{\"url\":\"https:\/\/reqres.in\/#support-heading\",\"text\":\"To keep ReqRes free, contributions towards server costs are appreciated!\"}}\n\n"},{"result":{"nanos":1098200,"millis":1.0982,"status":"passed"},"step":{"line":69,"prefix":"*","index":2,"text":"print response"},"stepLog":"13:38:40.775 [print] {\n  \"data\": {\n    \"id\": 2,\n    \"email\": \"janet.weaver@reqres.in\",\n    \"first_name\": \"Janet\",\n    \"last_name\": \"Weaver\",\n    \"avatar\": \"https:\/\/reqres.in\/img\/faces\/2-image.jpg\"\n  },\n  \"support\": {\n    \"url\": \"https:\/\/reqres.in\/#support-heading\",\n    \"text\": \"To keep ReqRes free, contributions towards server costs are appreciated!\"\n  }\n}\n \n"},{"result":{"nanos":950100,"millis":0.9501,"status":"passed"},"step":{"line":70,"prefix":"*","index":3,"text":"def jsonResponse = response"}},{"result":{"nanos":9503000,"millis":9.503,"status":"passed"},"step":{"line":71,"prefix":"*","index":4,"text":"def name = jsonResponse.data.first_name"}},{"result":{"nanos":2186700,"millis":2.1867,"status":"passed"},"step":{"line":72,"prefix":"*","index":5,"text":"print name"},"stepLog":"13:38:40.788 [print] Janet \n"},{"result":{"nanos":5116800,"errorMessage":"match failed: EQUALS\n  $ | not equal (STRING:STRING)\n  'Janet'\n  'Ishwar'\n\nsrc\/test\/java\/api.feature:73","millis":5.1168,"status":"failed"},"step":{"line":73,"prefix":"*","index":6,"text":"match name == 'Ishwar'"},"stepLog":"13:38:40.794 src\/test\/java\/api.feature:73\n* match name == 'Ishwar'\nmatch failed: EQUALS\n  $ | not equal (STRING:STRING)\n  'Janet'\n  'Ishwar'\n\nsrc\/test\/java\/api.feature:73\n"},{"result":{"nanos":0,"millis":0.0,"status":"skipped"},"step":{"line":74,"prefix":"Then","index":7,"text":"status 203"}}],"line":66,"description":"","durationMillis":242.692,"failed":true,"error":"match failed: EQUALS\n  $ | not equal (STRING:STRING)\n  'Janet'\n  'Ishwar'\n\nsrc\/test\/java\/api.feature:73","executorName":"main","name":"Get user details and verify.If response is invalid get-Accepted is not equal","startTime":1699517320549,"refId":"[9:66]","endTime":1699517320794,"exampleIndex":-1}],"callDepth":0,"name":"Testing Reqres Endpoints","description":"","resultDate":"2023-11-09 01:38:40 pm","durationMillis":5219.055,"passedCount":5}