{"failedCount":4,"prefixedPath":"src\/test\/java\/api.feature","packageQualifiedName":"src.test.java.api","loopIndex":-1,"relativePath":"src\/test\/java\/api.feature","scenarioResults":[{"sectionIndex":0,"stepResults":[{"result":{"nanos":118144800,"millis":118.1448,"status":"passed"},"step":{"line":5,"prefix":"Given","index":0,"text":"url 'https:\/\/reqres.in\/api\/users'"}},{"result":{"nanos":1799323600,"millis":1799.3236,"status":"passed"},"step":{"line":6,"prefix":"When","index":1,"text":"method GET"},"stepLog":"14:02:20.630 request:\n1 > GET https:\/\/reqres.in\/api\/users\n1 > Host: reqres.in\n1 > Connection: Keep-Alive\n1 > User-Agent: Apache-HttpClient\/4.5.13 (Java\/17.0.7)\n1 > Accept-Encoding: gzip,deflate\n\n\n14:02:21.306 response time in milliseconds: 671\n1 < 200\n1 < Date: Thu, 09 Nov 2023 08:32:19 GMT\n1 < Content-Type: application\/json; charset=utf-8\n1 < Transfer-Encoding: chunked\n1 < Connection: keep-alive\n1 < X-Powered-By: Express\n1 < Access-Control-Allow-Origin: *\n1 < Etag: W\/\"3e4-2RLXvr5wTg9YQ6aH95CkYoFNuO8\"\n1 < Via: 1.1 vegur\n1 < Cache-Control: max-age=14400\n1 < CF-Cache-Status: HIT\n1 < Age: 3495\n1 < Report-To: {\"endpoints\":[{\"url\":\"https:\\\/\\\/a.nel.cloudflare.com\\\/report\\\/v3?s=j5R42A2ZatkKpKoATwDnStoV%2FqXYiy5Mc2zOsl8UYujoClJQ2smeRqGx1DGKBVSIOF96iYJRsvMVgsBv31%2BeUu%2F1i5XUlfCo74utnRT8OwWA0scTG%2FkNYYT6nw%3D%3D\"}],\"group\":\"cf-nel\",\"max_age\":604800}\n1 < NEL: {\"success_fraction\":0,\"report_to\":\"cf-nel\",\"max_age\":604800}\n1 < Vary: Accept-Encoding\n1 < Server: cloudflare\n1 < CF-RAY: 8234b457adc58974-SIN\n{\"page\":1,\"per_page\":6,\"total\":12,\"total_pages\":2,\"data\":[{\"id\":1,\"email\":\"george.bluth@reqres.in\",\"first_name\":\"George\",\"last_name\":\"Bluth\",\"avatar\":\"https:\/\/reqres.in\/img\/faces\/1-image.jpg\"},{\"id\":2,\"email\":\"janet.weaver@reqres.in\",\"first_name\":\"Janet\",\"last_name\":\"Weaver\",\"avatar\":\"https:\/\/reqres.in\/img\/faces\/2-image.jpg\"},{\"id\":3,\"email\":\"emma.wong@reqres.in\",\"first_name\":\"Emma\",\"last_name\":\"Wong\",\"avatar\":\"https:\/\/reqres.in\/img\/faces\/3-image.jpg\"},{\"id\":4,\"email\":\"eve.holt@reqres.in\",\"first_name\":\"Eve\",\"last_name\":\"Holt\",\"avatar\":\"https:\/\/reqres.in\/img\/faces\/4-image.jpg\"},{\"id\":5,\"email\":\"charles.morris@reqres.in\",\"first_name\":\"Charles\",\"last_name\":\"Morris\",\"avatar\":\"https:\/\/reqres.in\/img\/faces\/5-image.jpg\"},{\"id\":6,\"email\":\"tracey.ramos@reqres.in\",\"first_name\":\"Tracey\",\"last_name\":\"Ramos\",\"avatar\":\"https:\/\/reqres.in\/img\/faces\/6-image.jpg\"}],\"support\":{\"url\":\"https:\/\/reqres.in\/#support-heading\",\"text\":\"To keep ReqRes free, contributions towards server costs are appreciated!\"}}\n\n"},{"result":{"nanos":46100,"millis":0.0461,"status":"passed"},"step":{"line":7,"prefix":"Then","index":2,"text":"status 200"}}],"executorName":"main","line":4,"name":"Get list of users","description":"","durationMillis":1917.5145,"startTime":1699518739505,"failed":false,"refId":"[1:4]","endTime":1699518741447,"exampleIndex":-1},{"sectionIndex":1,"stepResults":[{"result":{"nanos":1048000,"millis":1.048,"status":"passed"},"step":{"line":10,"prefix":"Given","index":0,"text":"url 'https:\/\/reqres.in\/api\/users'"}},{"result":{"nanos":45186801,"errorMessage":"js failed:\n>>>>\n01: \"name\": \"morpheus\", \"job\": \"engineer\"}\n<<<<\norg.graalvm.polyglot.PolyglotException: SyntaxError: Unnamed:1:6 Expected ; but found :\r\n\"name\": \"morpheus\", \"job\": \"engineer\"}\r\n      ^\n\n- org.graalvm.polyglot.Context.eval(Context.java:425)\n- com.intuit.karate.graal.JsEngine.evalForValue(JsEngine.java:139)\n- com.intuit.karate.graal.JsEngine.eval(JsEngine.java:135)\n- com.intuit.karate.core.ScenarioEngine.evalJs(ScenarioEngine.java:1190)\n- com.intuit.karate.core.ScenarioEngine.evalKarateExpression(ScenarioEngine.java:2143)\n- com.intuit.karate.core.ScenarioEngine.evalKarateExpression(ScenarioEngine.java:2062)\n- com.intuit.karate.core.ScenarioEngine.request(ScenarioEngine.java:533)\n\nsrc\/test\/java\/api.feature:11","millis":45.186801,"status":"failed"},"step":{"line":11,"prefix":"And","index":1,"text":"request \"name\": \"morpheus\", \"job\": \"engineer\"}"},"stepLog":"14:02:21.509 src\/test\/java\/api.feature:11\nAnd request \"name\": \"morpheus\", \"job\": \"engineer\"}\njs failed:\n>>>>\n01: \"name\": \"morpheus\", \"job\": \"engineer\"}\n<<<<\norg.graalvm.polyglot.PolyglotException: SyntaxError: Unnamed:1:6 Expected ; but found :\r\n\"name\": \"morpheus\", \"job\": \"engineer\"}\r\n      ^\n\n- org.graalvm.polyglot.Context.eval(Context.java:425)\n- com.intuit.karate.graal.JsEngine.evalForValue(JsEngine.java:139)\n- com.intuit.karate.graal.JsEngine.eval(JsEngine.java:135)\n- com.intuit.karate.core.ScenarioEngine.evalJs(ScenarioEngine.java:1190)\n- com.intuit.karate.core.ScenarioEngine.evalKarateExpression(ScenarioEngine.java:2143)\n- com.intuit.karate.core.ScenarioEngine.evalKarateExpression(ScenarioEngine.java:2062)\n- com.intuit.karate.core.ScenarioEngine.request(ScenarioEngine.java:533)\n\nsrc\/test\/java\/api.feature:11\n"},{"result":{"nanos":0,"millis":0.0,"status":"skipped"},"step":{"line":12,"prefix":"When","index":2,"text":"method POST"}},{"result":{"nanos":0,"millis":0.0,"status":"skipped"},"step":{"line":13,"prefix":"Then","index":3,"text":"status 201"}},{"result":{"nanos":0,"millis":0.0,"status":"skipped"},"step":{"line":14,"prefix":"And","index":4,"text":"match responce.data.name == 'morpheus'"}},{"result":{"nanos":0,"millis":0.0,"status":"skipped"},"step":{"line":15,"prefix":"And","index":5,"text":"match responce.data.job == 'engineer'"}}],"line":9,"description":"","durationMillis":46.234801,"failed":true,"error":"js failed:\n>>>>\n01: \"name\": \"morpheus\", \"job\": \"engineer\"}\n<<<<\norg.graalvm.polyglot.PolyglotException: SyntaxError: Unnamed:1:6 Expected ; but found :\r\n\"name\": \"morpheus\", \"job\": \"engineer\"}\r\n      ^\n\n- org.graalvm.polyglot.Context.eval(Context.java:425)\n- com.intuit.karate.graal.JsEngine.evalForValue(JsEngine.java:139)\n- com.intuit.karate.graal.JsEngine.eval(JsEngine.java:135)\n- com.intuit.karate.core.ScenarioEngine.evalJs(ScenarioEngine.java:1190)\n- com.intuit.karate.core.ScenarioEngine.evalKarateExpression(ScenarioEngine.java:2143)\n- com.intuit.karate.core.ScenarioEngine.evalKarateExpression(ScenarioEngine.java:2062)\n- com.intuit.karate.core.ScenarioEngine.request(ScenarioEngine.java:533)\n\nsrc\/test\/java\/api.feature:11","executorName":"main","name":"Create a new user","startTime":1699518741461,"refId":"[2:9]","endTime":1699518741509,"exampleIndex":-1},{"sectionIndex":2,"stepResults":[{"result":{"nanos":1938001,"millis":1.938001,"status":"passed"},"step":{"line":19,"prefix":"Given","index":0,"text":"url 'https:\/\/reqres.in\/api\/users\/2'"}},{"result":{"nanos":233525299,"millis":233.525299,"status":"passed"},"step":{"line":20,"prefix":"When","index":1,"text":"method GET"},"stepLog":"14:02:21.523 request:\n1 > GET https:\/\/reqres.in\/api\/users\/2\n1 > Host: reqres.in\n1 > Connection: Keep-Alive\n1 > User-Agent: Apache-HttpClient\/4.5.13 (Java\/17.0.7)\n1 > Accept-Encoding: gzip,deflate\n\n\n14:02:21.752 response time in milliseconds: 228\n1 < 200\n1 < Date: Thu, 09 Nov 2023 08:32:19 GMT\n1 < Content-Type: application\/json; charset=utf-8\n1 < Transfer-Encoding: chunked\n1 < Connection: keep-alive\n1 < Report-To: {\"group\":\"heroku-nel\",\"max_age\":3600,\"endpoints\":[{\"url\":\"https:\/\/nel.heroku.com\/reports?ts=1699465080&sid=c4c9725f-1ab0-44d8-820f-430df2718e11&s=xdIsyGiauupgaWLGgxDFWupAsSKaYpJa05dGhFObqHk%3D\"}]}\n1 < Reporting-Endpoints: heroku-nel=https:\/\/nel.heroku.com\/reports?ts=1699465080&sid=c4c9725f-1ab0-44d8-820f-430df2718e11&s=xdIsyGiauupgaWLGgxDFWupAsSKaYpJa05dGhFObqHk%3D\n1 < Nel: {\"report_to\":\"heroku-nel\",\"max_age\":3600,\"success_fraction\":0.005,\"failure_fraction\":0.05,\"response_headers\":[\"Via\"]}\n1 < X-Powered-By: Express\n1 < Access-Control-Allow-Origin: *\n1 < Etag: W\/\"118-pbdwwFo9SKNhD3Lx5iHJyngpq00\"\n1 < Via: 1.1 vegur\n1 < Cache-Control: max-age=14400\n1 < CF-Cache-Status: HIT\n1 < Age: 2856\n1 < Vary: Accept-Encoding\n1 < Server: cloudflare\n1 < CF-RAY: 8234b45aaf9b8942-SIN\n{\"data\":{\"id\":2,\"email\":\"janet.weaver@reqres.in\",\"first_name\":\"Janet\",\"last_name\":\"Weaver\",\"avatar\":\"https:\/\/reqres.in\/img\/faces\/2-image.jpg\"},\"support\":{\"url\":\"https:\/\/reqres.in\/#support-heading\",\"text\":\"To keep ReqRes free, contributions towards server costs are appreciated!\"}}\n\n"},{"result":{"nanos":15800,"millis":0.0158,"status":"passed"},"step":{"line":21,"prefix":"Then","index":2,"text":"status 200"}},{"result":{"nanos":66156700,"errorMessage":"js failed:\n>>>>\n01: karate.log('[print]', responce)\n<<<<\norg.graalvm.polyglot.PolyglotException: ReferenceError: \"responce\" is not defined\n- <js>.:program(Unnamed:1)\n\nsrc\/test\/java\/api.feature:22","millis":66.1567,"status":"failed"},"step":{"line":22,"prefix":"*","index":3,"text":"print  responce"},"stepLog":"14:02:21.821 src\/test\/java\/api.feature:22\n* print  responce\njs failed:\n>>>>\n01: karate.log('[print]', responce)\n<<<<\norg.graalvm.polyglot.PolyglotException: ReferenceError: \"responce\" is not defined\n- <js>.:program(Unnamed:1)\n\nsrc\/test\/java\/api.feature:22\n"},{"result":{"nanos":0,"millis":0.0,"status":"skipped"},"step":{"line":23,"prefix":"*","index":4,"text":"def jsonreponce =responce"}},{"result":{"nanos":0,"millis":0.0,"status":"skipped"},"step":{"line":24,"prefix":"*","index":5,"text":"def id = jsonResponse.data.id"}},{"result":{"nanos":0,"millis":0.0,"status":"skipped"},"step":{"line":25,"prefix":"*","index":6,"text":"print id"}}],"line":18,"description":"","durationMillis":301.6358,"failed":true,"error":"js failed:\n>>>>\n01: karate.log('[print]', responce)\n<<<<\norg.graalvm.polyglot.PolyglotException: ReferenceError: \"responce\" is not defined\n- <js>.:program(Unnamed:1)\n\nsrc\/test\/java\/api.feature:22","executorName":"main","name":"Get id of user from details","startTime":1699518741518,"refId":"[3:18]","endTime":1699518741822,"exampleIndex":-1},{"sectionIndex":3,"stepResults":[{"result":{"nanos":1306299,"millis":1.306299,"status":"passed"},"step":{"line":31,"prefix":"Given","index":0,"text":"url 'https:\/\/reqres.in\/api\/unknown\/'"}},{"result":{"nanos":1180499,"millis":1.180499,"status":"passed"},"step":{"line":32,"prefix":"And","index":1,"text":"path '30'"}},{"result":{"nanos":580861300,"millis":580.8613,"status":"passed"},"step":{"line":33,"prefix":"When","index":2,"text":"method GET"},"stepLog":"14:02:21.845 request:\n1 > GET https:\/\/reqres.in\/api\/unknown\/30\n1 > Host: reqres.in\n1 > Connection: Keep-Alive\n1 > User-Agent: Apache-HttpClient\/4.5.13 (Java\/17.0.7)\n1 > Accept-Encoding: gzip,deflate\n\n\n14:02:22.422 response time in milliseconds: 576\n1 < 404\n1 < Date: Thu, 09 Nov 2023 08:32:20 GMT\n1 < Content-Type: application\/json; charset=utf-8\n1 < Content-Length: 2\n1 < Connection: keep-alive\n1 < Report-To: {\"group\":\"heroku-nel\",\"max_age\":3600,\"endpoints\":[{\"url\":\"https:\/\/nel.heroku.com\/reports?ts=1699518740&sid=c4c9725f-1ab0-44d8-820f-430df2718e11&s=eZDBL%2B9jFF4%2BhGpolnYp%2FnXnfNeJ0XygXEFV5DXdZyI%3D\"}]}\n1 < Reporting-Endpoints: heroku-nel=https:\/\/nel.heroku.com\/reports?ts=1699518740&sid=c4c9725f-1ab0-44d8-820f-430df2718e11&s=eZDBL%2B9jFF4%2BhGpolnYp%2FnXnfNeJ0XygXEFV5DXdZyI%3D\n1 < Nel: {\"report_to\":\"heroku-nel\",\"max_age\":3600,\"success_fraction\":0.005,\"failure_fraction\":0.05,\"response_headers\":[\"Via\"]}\n1 < X-Powered-By: Express\n1 < Access-Control-Allow-Origin: *\n1 < Etag: W\/\"2-vyGp6PvFo4RvsFtPoIWeCReyIC8\"\n1 < Via: 1.1 vegur\n1 < Cache-Control: max-age=14400\n1 < CF-Cache-Status: EXPIRED\n1 < Vary: Accept-Encoding\n1 < Server: cloudflare\n1 < CF-RAY: 8234b45c9f908965-SIN\n{}\n\n"},{"result":{"nanos":24400,"millis":0.0244,"status":"passed"},"step":{"line":34,"prefix":"Then","index":3,"text":"status 404"}}],"executorName":"main","line":30,"name":"Get user details-user not found","description":"","durationMillis":583.372498,"startTime":1699518741834,"failed":false,"refId":"[4:30]","endTime":1699518742423,"exampleIndex":-1},{"sectionIndex":4,"stepResults":[{"result":{"nanos":329900,"millis":0.3299,"status":"passed"},"step":{"line":37,"prefix":"Given","index":0,"text":"url 'https:\/\/reqres.in\/api\/unknown\/'"}},{"result":{"nanos":748000,"millis":0.748,"status":"passed"},"step":{"line":38,"prefix":"And","index":1,"text":"path '2'"}},{"result":{"nanos":244785600,"millis":244.7856,"status":"passed"},"step":{"line":39,"prefix":"When","index":2,"text":"method GET"},"stepLog":"14:02:22.432 request:\n1 > GET https:\/\/reqres.in\/api\/unknown\/2\n1 > Host: reqres.in\n1 > Connection: Keep-Alive\n1 > User-Agent: Apache-HttpClient\/4.5.13 (Java\/17.0.7)\n1 > Accept-Encoding: gzip,deflate\n\n\n14:02:22.674 response time in milliseconds: 241\n1 < 200\n1 < Date: Thu, 09 Nov 2023 08:32:20 GMT\n1 < Content-Type: application\/json; charset=utf-8\n1 < Transfer-Encoding: chunked\n1 < Connection: keep-alive\n1 < Report-To: {\"group\":\"heroku-nel\",\"max_age\":3600,\"endpoints\":[{\"url\":\"https:\/\/nel.heroku.com\/reports?ts=1698831816&sid=c4c9725f-1ab0-44d8-820f-430df2718e11&s=%2BnSQIskfS9no%2FHuC5oOPIo1DmsUlBqh2ispfW6mhB%2FM%3D\"}]}\n1 < Reporting-Endpoints: heroku-nel=https:\/\/nel.heroku.com\/reports?ts=1698831816&sid=c4c9725f-1ab0-44d8-820f-430df2718e11&s=%2BnSQIskfS9no%2FHuC5oOPIo1DmsUlBqh2ispfW6mhB%2FM%3D\n1 < Nel: {\"report_to\":\"heroku-nel\",\"max_age\":3600,\"success_fraction\":0.005,\"failure_fraction\":0.05,\"response_headers\":[\"Via\"]}\n1 < X-Powered-By: Express\n1 < Access-Control-Allow-Origin: *\n1 < Etag: W\/\"e8-ov4wWh4\/OY1IMQMqWgskYtOFnVs\"\n1 < Via: 1.1 vegur\n1 < Cache-Control: max-age=14400\n1 < CF-Cache-Status: HIT\n1 < Age: 2148\n1 < Vary: Accept-Encoding\n1 < Server: cloudflare\n1 < CF-RAY: 8234b4607b468950-SIN\n{\"data\":{\"id\":2,\"name\":\"fuchsia rose\",\"year\":2001,\"color\":\"#C74375\",\"pantone_value\":\"17-2031\"},\"support\":{\"url\":\"https:\/\/reqres.in\/#support-heading\",\"text\":\"To keep ReqRes free, contributions towards server costs are appreciated!\"}}\n\n"},{"result":{"nanos":16400,"millis":0.0164,"status":"passed"},"step":{"line":40,"prefix":"Then","index":3,"text":"status 200"}}],"executorName":"main","line":36,"name":"Get user print the response","description":"","durationMillis":245.8799,"startTime":1699518742429,"failed":false,"refId":"[5:36]","endTime":1699518742675,"exampleIndex":-1},{"sectionIndex":5,"stepResults":[{"result":{"nanos":398700,"millis":0.3987,"status":"passed"},"step":{"line":43,"prefix":"Given","index":0,"text":"url 'https:\/\/reqres.in\/api\/users\/2'"}},{"result":{"nanos":60823601,"millis":60.823601,"status":"passed"},"step":{"line":44,"prefix":"And","index":1,"text":"request {\"name\": \"Allen\"}"}},{"result":{"nanos":729240100,"millis":729.2401,"status":"passed"},"step":{"line":45,"prefix":"When","index":2,"text":"method PUT"},"stepLog":"14:02:22.899 request:\n1 > PUT https:\/\/reqres.in\/api\/users\/2\n1 > Content-Type: application\/json; charset=UTF-8\n1 > Content-Length: 16\n1 > Host: reqres.in\n1 > Connection: Keep-Alive\n1 > User-Agent: Apache-HttpClient\/4.5.13 (Java\/17.0.7)\n1 > Accept-Encoding: gzip,deflate\n{\"name\":\"Allen\"}\n\n14:02:23.472 response time in milliseconds: 573\n1 < 200\n1 < Date: Thu, 09 Nov 2023 08:32:21 GMT\n1 < Content-Type: application\/json; charset=utf-8\n1 < Transfer-Encoding: chunked\n1 < Connection: keep-alive\n1 < Report-To: {\"group\":\"heroku-nel\",\"max_age\":3600,\"endpoints\":[{\"url\":\"https:\/\/nel.heroku.com\/reports?ts=1699518741&sid=c4c9725f-1ab0-44d8-820f-430df2718e11&s=83%2Bq0jGAIgsXf%2BogpAeCbmilqiQGPQoJiuy1i%2BTs%2B90%3D\"}]}\n1 < Reporting-Endpoints: heroku-nel=https:\/\/nel.heroku.com\/reports?ts=1699518741&sid=c4c9725f-1ab0-44d8-820f-430df2718e11&s=83%2Bq0jGAIgsXf%2BogpAeCbmilqiQGPQoJiuy1i%2BTs%2B90%3D\n1 < Nel: {\"report_to\":\"heroku-nel\",\"max_age\":3600,\"success_fraction\":0.005,\"failure_fraction\":0.05,\"response_headers\":[\"Via\"]}\n1 < X-Powered-By: Express\n1 < Access-Control-Allow-Origin: *\n1 < Etag: W\/\"37-RfZqaSIjvjmHjpctsrL46mcrnOY\"\n1 < Via: 1.1 vegur\n1 < CF-Cache-Status: DYNAMIC\n1 < Vary: Accept-Encoding\n1 < Server: cloudflare\n1 < CF-RAY: 8234b4633e2289aa-SIN\n{\"name\":\"Allen\",\"updatedAt\":\"2023-11-09T08:32:21.261Z\"}\n\n"},{"result":{"nanos":41899,"millis":0.041899,"status":"passed"},"step":{"line":46,"prefix":"Then","index":3,"text":"status 200"}},{"result":{"nanos":4840101,"errorMessage":"js failed:\n>>>>\n01: responce\n<<<<\norg.graalvm.polyglot.PolyglotException: ReferenceError: \"responce\" is not defined\n- <js>.:program(Unnamed:1)\n\nsrc\/test\/java\/api.feature:47","millis":4.840101,"status":"failed"},"step":{"line":47,"prefix":"And","index":4,"text":"match responce.data.name == 'Allen'"},"stepLog":"14:02:23.479 src\/test\/java\/api.feature:47\nAnd match responce.data.name == 'Allen'\njs failed:\n>>>>\n01: responce\n<<<<\norg.graalvm.polyglot.PolyglotException: ReferenceError: \"responce\" is not defined\n- <js>.:program(Unnamed:1)\n\nsrc\/test\/java\/api.feature:47\n"},{"result":{"nanos":0,"millis":0.0,"status":"skipped"},"step":{"line":49,"prefix":"*","index":5,"text":"print response"}}],"line":42,"description":"","durationMillis":795.344401,"failed":true,"error":"js failed:\n>>>>\n01: responce\n<<<<\norg.graalvm.polyglot.PolyglotException: ReferenceError: \"responce\" is not defined\n- <js>.:program(Unnamed:1)\n\nsrc\/test\/java\/api.feature:47","executorName":"main","name":"Update user details","startTime":1699518742682,"refId":"[6:42]","endTime":1699518743479,"exampleIndex":-1},{"sectionIndex":6,"stepResults":[{"result":{"nanos":283200,"millis":0.2832,"status":"passed"},"step":{"line":52,"prefix":"Given","index":0,"text":"url 'https:\/\/reqres.in\/api\/unknown\/'"}},{"result":{"nanos":922000,"millis":0.922,"status":"passed"},"step":{"line":53,"prefix":"And","index":1,"text":"path '1'"}},{"result":{"nanos":251380900,"millis":251.3809,"status":"passed"},"step":{"line":54,"prefix":"When","index":2,"text":"method GET"},"stepLog":"14:02:23.490 request:\n1 > GET https:\/\/reqres.in\/api\/unknown\/1\n1 > Host: reqres.in\n1 > Connection: Keep-Alive\n1 > User-Agent: Apache-HttpClient\/4.5.13 (Java\/17.0.7)\n1 > Accept-Encoding: gzip,deflate\n\n\n14:02:23.735 response time in milliseconds: 245\n1 < 200\n1 < Date: Thu, 09 Nov 2023 08:32:21 GMT\n1 < Content-Type: application\/json; charset=utf-8\n1 < Transfer-Encoding: chunked\n1 < Connection: keep-alive\n1 < Report-To: {\"group\":\"heroku-nel\",\"max_age\":3600,\"endpoints\":[{\"url\":\"https:\/\/nel.heroku.com\/reports?ts=1699459944&sid=c4c9725f-1ab0-44d8-820f-430df2718e11&s=dnN9xThnBOblhgMXN6oZZnsJtwttqiYuKcuz41bk5yw%3D\"}]}\n1 < Reporting-Endpoints: heroku-nel=https:\/\/nel.heroku.com\/reports?ts=1699459944&sid=c4c9725f-1ab0-44d8-820f-430df2718e11&s=dnN9xThnBOblhgMXN6oZZnsJtwttqiYuKcuz41bk5yw%3D\n1 < Nel: {\"report_to\":\"heroku-nel\",\"max_age\":3600,\"success_fraction\":0.005,\"failure_fraction\":0.05,\"response_headers\":[\"Via\"]}\n1 < X-Powered-By: Express\n1 < Access-Control-Allow-Origin: *\n1 < Etag: W\/\"e4-2W7ZNEqb4DWjJCUXzZoMFmGhgio\"\n1 < Via: 1.1 vegur\n1 < Cache-Control: max-age=14400\n1 < CF-Cache-Status: HIT\n1 < Age: 1612\n1 < Vary: Accept-Encoding\n1 < Server: cloudflare\n1 < CF-RAY: 8234b4670eb4899b-SIN\n{\"data\":{\"id\":1,\"name\":\"cerulean\",\"year\":2000,\"color\":\"#98B2D1\",\"pantone_value\":\"15-4020\"},\"support\":{\"url\":\"https:\/\/reqres.in\/#support-heading\",\"text\":\"To keep ReqRes free, contributions towards server costs are appreciated!\"}}\n\n"},{"result":{"nanos":19101,"millis":0.019101,"status":"passed"},"step":{"line":55,"prefix":"Then","index":3,"text":"status 200"}},{"result":{"nanos":135042399,"millis":135.042399,"status":"passed"},"step":{"line":56,"prefix":"*","index":4,"text":"print response"},"stepLog":"14:02:23.871 [print] {\n  \"data\": {\n    \"id\": 1,\n    \"name\": \"cerulean\",\n    \"year\": 2000,\n    \"color\": \"#98B2D1\",\n    \"pantone_value\": \"15-4020\"\n  },\n  \"support\": {\n    \"url\": \"https:\/\/reqres.in\/#support-heading\",\n    \"text\": \"To keep ReqRes free, contributions towards server costs are appreciated!\"\n  }\n}\n \n"},{"result":{"nanos":30164100,"millis":30.1641,"status":"passed"},"step":{"line":57,"prefix":"*","index":5,"text":"def jsonResponse = response"}},{"result":{"nanos":2226101,"millis":2.226101,"status":"passed"},"step":{"line":58,"prefix":"*","index":6,"text":"def actualName = jsonResponse.data.name"}},{"result":{"nanos":2232600,"millis":2.2326,"status":"passed"},"step":{"line":59,"prefix":"*","index":7,"text":"print actualName"},"stepLog":"14:02:23.908 [print] cerulean \n"}],"executorName":"main","line":51,"name":"Get user details and print the name using json","description":"","durationMillis":422.270401,"startTime":1699518743485,"failed":false,"refId":"[7:51]","endTime":1699518743908,"exampleIndex":-1},{"sectionIndex":7,"stepResults":[{"result":{"nanos":303200,"millis":0.3032,"status":"passed"},"step":{"line":62,"prefix":"Given","index":0,"text":"url 'https:\/\/reqres.in\/api\/users\/2'"}},{"result":{"nanos":83315601,"millis":83.315601,"status":"passed"},"step":{"line":63,"prefix":"When","index":1,"text":"method GET"},"stepLog":"14:02:23.918 request:\n1 > GET https:\/\/reqres.in\/api\/users\/2\n1 > Host: reqres.in\n1 > Connection: Keep-Alive\n1 > User-Agent: Apache-HttpClient\/4.5.13 (Java\/17.0.7)\n1 > Accept-Encoding: gzip,deflate\n\n\n14:02:23.995 response time in milliseconds: 72\n1 < 200\n1 < Date: Thu, 09 Nov 2023 08:32:21 GMT\n1 < Content-Type: application\/json; charset=utf-8\n1 < Transfer-Encoding: chunked\n1 < Connection: keep-alive\n1 < X-Powered-By: Express\n1 < Access-Control-Allow-Origin: *\n1 < Etag: W\/\"118-pbdwwFo9SKNhD3Lx5iHJyngpq00\"\n1 < Via: 1.1 vegur\n1 < Cache-Control: max-age=14400\n1 < CF-Cache-Status: HIT\n1 < Age: 2323\n1 < Report-To: {\"endpoints\":[{\"url\":\"https:\\\/\\\/a.nel.cloudflare.com\\\/report\\\/v3?s=XxKlzVlBfwN2WNOKF6vctQ0K8njcnuqApKKI0RfdNN%2FHBTcqoUdXthcfYUbnmnPHHCoAPLN9q5Y73uJOq7%2FmTAN3YoQ7WaCEBhIOGaIsg4xz44Drox2twyCnRQ%3D%3D\"}],\"group\":\"cf-nel\",\"max_age\":604800}\n1 < NEL: {\"success_fraction\":0,\"report_to\":\"cf-nel\",\"max_age\":604800}\n1 < Vary: Accept-Encoding\n1 < Server: cloudflare\n1 < CF-RAY: 8234b468d98a3aab-BOM\n{\"data\":{\"id\":2,\"email\":\"janet.weaver@reqres.in\",\"first_name\":\"Janet\",\"last_name\":\"Weaver\",\"avatar\":\"https:\/\/reqres.in\/img\/faces\/2-image.jpg\"},\"support\":{\"url\":\"https:\/\/reqres.in\/#support-heading\",\"text\":\"To keep ReqRes free, contributions towards server costs are appreciated!\"}}\n\n"},{"result":{"nanos":16900,"millis":0.0169,"status":"passed"},"step":{"line":64,"prefix":"Then","index":2,"text":"status 200"}},{"result":{"nanos":1301999,"millis":1.301999,"status":"passed"},"step":{"line":65,"prefix":"*","index":3,"text":"print response"},"stepLog":"14:02:23.998 [print] {\n  \"data\": {\n    \"id\": 2,\n    \"email\": \"janet.weaver@reqres.in\",\n    \"first_name\": \"Janet\",\n    \"last_name\": \"Weaver\",\n    \"avatar\": \"https:\/\/reqres.in\/img\/faces\/2-image.jpg\"\n  },\n  \"support\": {\n    \"url\": \"https:\/\/reqres.in\/#support-heading\",\n    \"text\": \"To keep ReqRes free, contributions towards server costs are appreciated!\"\n  }\n}\n \n"},{"result":{"nanos":528100,"millis":0.5281,"status":"passed"},"step":{"line":66,"prefix":"*","index":4,"text":"def jsonResponse = response"}},{"result":{"nanos":1661199,"millis":1.661199,"status":"passed"},"step":{"line":67,"prefix":"*","index":5,"text":"def email = jsonResponse.data.email"}},{"result":{"nanos":4138900,"millis":4.1389,"status":"passed"},"step":{"line":68,"prefix":"*","index":6,"text":"print email"},"stepLog":"14:02:24.004 [print] janet.weaver@reqres.in \n"},{"result":{"nanos":23651700,"millis":23.6517,"status":"passed"},"step":{"line":69,"prefix":"*","index":7,"text":"match email == 'janet.weaver@reqres.in'"}}],"executorName":"main","line":61,"name":"Get user details and verify user email using json path","description":"","durationMillis":114.917599,"startTime":1699518743913,"failed":false,"refId":"[8:61]","endTime":1699518744030,"exampleIndex":-1},{"sectionIndex":8,"stepResults":[{"result":{"nanos":286901,"millis":0.286901,"status":"passed"},"step":{"line":72,"prefix":"Given","index":0,"text":"url 'https:\/\/reqres.in\/api\/users\/2'"}},{"result":{"nanos":81880999,"millis":81.880999,"status":"passed"},"step":{"line":73,"prefix":"When","index":1,"text":"method GET"},"stepLog":"14:02:24.046 request:\n1 > GET https:\/\/reqres.in\/api\/users\/2\n1 > Host: reqres.in\n1 > Connection: Keep-Alive\n1 > User-Agent: Apache-HttpClient\/4.5.13 (Java\/17.0.7)\n1 > Accept-Encoding: gzip,deflate\n\n\n14:02:24.122 response time in milliseconds: 76\n1 < 200\n1 < Date: Thu, 09 Nov 2023 08:32:22 GMT\n1 < Content-Type: application\/json; charset=utf-8\n1 < Transfer-Encoding: chunked\n1 < Connection: keep-alive\n1 < X-Powered-By: Express\n1 < Access-Control-Allow-Origin: *\n1 < Etag: W\/\"118-pbdwwFo9SKNhD3Lx5iHJyngpq00\"\n1 < Via: 1.1 vegur\n1 < Cache-Control: max-age=14400\n1 < CF-Cache-Status: HIT\n1 < Age: 2324\n1 < Report-To: {\"endpoints\":[{\"url\":\"https:\\\/\\\/a.nel.cloudflare.com\\\/report\\\/v3?s=N8PzOLQApiaeVBtjMCVfsb6RSNC3VrgzRuzbaWfumFaN9KFa0HR7p3uBV6Yx8FY14FoGQT7oUbQD%2BqNCtfpT%2F%2FBlwpxI0E944BTOJBjKi2l8eB3GW%2BMYwHtOow%3D%3D\"}],\"group\":\"cf-nel\",\"max_age\":604800}\n1 < NEL: {\"success_fraction\":0,\"report_to\":\"cf-nel\",\"max_age\":604800}\n1 < Vary: Accept-Encoding\n1 < Server: cloudflare\n1 < CF-RAY: 8234b469afc23a1d-BOM\n{\"data\":{\"id\":2,\"email\":\"janet.weaver@reqres.in\",\"first_name\":\"Janet\",\"last_name\":\"Weaver\",\"avatar\":\"https:\/\/reqres.in\/img\/faces\/2-image.jpg\"},\"support\":{\"url\":\"https:\/\/reqres.in\/#support-heading\",\"text\":\"To keep ReqRes free, contributions towards server costs are appreciated!\"}}\n\n"},{"result":{"nanos":1431401,"millis":1.431401,"status":"passed"},"step":{"line":74,"prefix":"*","index":2,"text":"print response"},"stepLog":"14:02:24.125 [print] {\n  \"data\": {\n    \"id\": 2,\n    \"email\": \"janet.weaver@reqres.in\",\n    \"first_name\": \"Janet\",\n    \"last_name\": \"Weaver\",\n    \"avatar\": \"https:\/\/reqres.in\/img\/faces\/2-image.jpg\"\n  },\n  \"support\": {\n    \"url\": \"https:\/\/reqres.in\/#support-heading\",\n    \"text\": \"To keep ReqRes free, contributions towards server costs are appreciated!\"\n  }\n}\n \n"},{"result":{"nanos":607499,"millis":0.607499,"status":"passed"},"step":{"line":75,"prefix":"*","index":3,"text":"def jsonResponse = response"}},{"result":{"nanos":2786500,"millis":2.7865,"status":"passed"},"step":{"line":76,"prefix":"*","index":4,"text":"def name = jsonResponse.data.first_name"}},{"result":{"nanos":3388000,"millis":3.388,"status":"passed"},"step":{"line":77,"prefix":"*","index":5,"text":"print name"},"stepLog":"14:02:24.132 [print] Janet \n"},{"result":{"nanos":9001599,"errorMessage":"match failed: EQUALS\n  $ | not equal (STRING:STRING)\n  'Janet'\n  'Ishwar'\n\nsrc\/test\/java\/api.feature:78","millis":9.001599,"status":"failed"},"step":{"line":78,"prefix":"*","index":6,"text":"match name == 'Ishwar'"},"stepLog":"14:02:24.141 src\/test\/java\/api.feature:78\n* match name == 'Ishwar'\nmatch failed: EQUALS\n  $ | not equal (STRING:STRING)\n  'Janet'\n  'Ishwar'\n\nsrc\/test\/java\/api.feature:78\n"},{"result":{"nanos":0,"millis":0.0,"status":"skipped"},"step":{"line":79,"prefix":"Then","index":7,"text":"status 203"}}],"line":71,"description":"","durationMillis":99.382899,"failed":true,"error":"match failed: EQUALS\n  $ | not equal (STRING:STRING)\n  'Janet'\n  'Ishwar'\n\nsrc\/test\/java\/api.feature:78","executorName":"main","name":"Get user details and verify.If response is invalid get-Accepted is not equal","startTime":1699518744041,"refId":"[9:71]","endTime":1699518744142,"exampleIndex":-1}],"callDepth":0,"name":"Testing Reqres Endpoints","description":"","resultDate":"2023-11-09 02:02:24 pm","durationMillis":4526.552799,"passedCount":5}