{"failedCount":4,"prefixedPath":"src\/test\/java\/api.feature","packageQualifiedName":"src.test.java.api","loopIndex":-1,"relativePath":"src\/test\/java\/api.feature","scenarioResults":[{"sectionIndex":0,"stepResults":[{"result":{"nanos":146003200,"millis":146.0032,"status":"passed"},"step":{"line":5,"prefix":"Given","index":0,"text":"url 'https:\/\/reqres.in\/api\/users'"}},{"result":{"nanos":2125821500,"millis":2125.8215,"status":"passed"},"step":{"line":6,"prefix":"When","index":1,"text":"method GET"},"stepLog":"13:51:59.095 request:\n1 > GET https:\/\/reqres.in\/api\/users\n1 > Host: reqres.in\n1 > Connection: Keep-Alive\n1 > User-Agent: Apache-HttpClient\/4.5.13 (Java\/17.0.7)\n1 > Accept-Encoding: gzip,deflate\n\n\n13:52:00.012 response time in milliseconds: 912\n1 < 200\n1 < Date: Thu, 09 Nov 2023 08:21:57 GMT\n1 < Content-Type: application\/json; charset=utf-8\n1 < Transfer-Encoding: chunked\n1 < Connection: keep-alive\n1 < X-Powered-By: Express\n1 < Access-Control-Allow-Origin: *\n1 < Etag: W\/\"3e4-2RLXvr5wTg9YQ6aH95CkYoFNuO8\"\n1 < Via: 1.1 vegur\n1 < Cache-Control: max-age=14400\n1 < CF-Cache-Status: HIT\n1 < Age: 2873\n1 < Report-To: {\"endpoints\":[{\"url\":\"https:\\\/\\\/a.nel.cloudflare.com\\\/report\\\/v3?s=9%2F4jHBg5rpGgOOCAXcW0iAaBuYSLqRdAot6azX%2BkIKP1tSgAkNT%2BKaXbeHftRDO8AJ6fpP2t8Z31ZyDex1W3qc8zxRzdD5zVo5C0wf80eBK%2FiQEkz6kepovFbw%3D%3D\"}],\"group\":\"cf-nel\",\"max_age\":604800}\n1 < NEL: {\"success_fraction\":0,\"report_to\":\"cf-nel\",\"max_age\":604800}\n1 < Vary: Accept-Encoding\n1 < Server: cloudflare\n1 < CF-RAY: 8234a52c9f164d92-SIN\n{\"page\":1,\"per_page\":6,\"total\":12,\"total_pages\":2,\"data\":[{\"id\":1,\"email\":\"george.bluth@reqres.in\",\"first_name\":\"George\",\"last_name\":\"Bluth\",\"avatar\":\"https:\/\/reqres.in\/img\/faces\/1-image.jpg\"},{\"id\":2,\"email\":\"janet.weaver@reqres.in\",\"first_name\":\"Janet\",\"last_name\":\"Weaver\",\"avatar\":\"https:\/\/reqres.in\/img\/faces\/2-image.jpg\"},{\"id\":3,\"email\":\"emma.wong@reqres.in\",\"first_name\":\"Emma\",\"last_name\":\"Wong\",\"avatar\":\"https:\/\/reqres.in\/img\/faces\/3-image.jpg\"},{\"id\":4,\"email\":\"eve.holt@reqres.in\",\"first_name\":\"Eve\",\"last_name\":\"Holt\",\"avatar\":\"https:\/\/reqres.in\/img\/faces\/4-image.jpg\"},{\"id\":5,\"email\":\"charles.morris@reqres.in\",\"first_name\":\"Charles\",\"last_name\":\"Morris\",\"avatar\":\"https:\/\/reqres.in\/img\/faces\/5-image.jpg\"},{\"id\":6,\"email\":\"tracey.ramos@reqres.in\",\"first_name\":\"Tracey\",\"last_name\":\"Ramos\",\"avatar\":\"https:\/\/reqres.in\/img\/faces\/6-image.jpg\"}],\"support\":{\"url\":\"https:\/\/reqres.in\/#support-heading\",\"text\":\"To keep ReqRes free, contributions towards server costs are appreciated!\"}}\n\n"},{"result":{"nanos":44900,"millis":0.0449,"status":"passed"},"step":{"line":7,"prefix":"Then","index":2,"text":"status 200"}}],"executorName":"main","line":4,"name":"Get list of users","description":"","durationMillis":2271.8696,"startTime":1699518117884,"failed":false,"refId":"[1:4]","endTime":1699518120179,"exampleIndex":-1},{"sectionIndex":1,"stepResults":[{"result":{"nanos":472100,"millis":0.4721,"status":"passed"},"step":{"line":10,"prefix":"Given","index":0,"text":"url 'https:\/\/reqres.in\/api\/users'"}},{"result":{"nanos":60868600,"errorMessage":"js failed:\n>>>>\n01: ;\"name\": \"morpheus\", \"job\": \"engineer\"}\n<<<<\norg.graalvm.polyglot.PolyglotException: SyntaxError: Unnamed:1:7 Expected ; but found :\r\n;\"name\": \"morpheus\", \"job\": \"engineer\"}\r\n       ^\n\n- org.graalvm.polyglot.Context.eval(Context.java:425)\n- com.intuit.karate.graal.JsEngine.evalForValue(JsEngine.java:139)\n- com.intuit.karate.graal.JsEngine.eval(JsEngine.java:135)\n- com.intuit.karate.core.ScenarioEngine.evalJs(ScenarioEngine.java:1190)\n- com.intuit.karate.core.ScenarioEngine.evalKarateExpression(ScenarioEngine.java:2143)\n- com.intuit.karate.core.ScenarioEngine.evalKarateExpression(ScenarioEngine.java:2062)\n- com.intuit.karate.core.ScenarioEngine.request(ScenarioEngine.java:533)\n\nsrc\/test\/java\/api.feature:11","millis":60.8686,"status":"failed"},"step":{"line":11,"prefix":"And","index":1,"text":"request ;\"name\": \"morpheus\", \"job\": \"engineer\"}"},"stepLog":"13:52:00.256 src\/test\/java\/api.feature:11\nAnd request ;\"name\": \"morpheus\", \"job\": \"engineer\"}\njs failed:\n>>>>\n01: ;\"name\": \"morpheus\", \"job\": \"engineer\"}\n<<<<\norg.graalvm.polyglot.PolyglotException: SyntaxError: Unnamed:1:7 Expected ; but found :\r\n;\"name\": \"morpheus\", \"job\": \"engineer\"}\r\n       ^\n\n- org.graalvm.polyglot.Context.eval(Context.java:425)\n- com.intuit.karate.graal.JsEngine.evalForValue(JsEngine.java:139)\n- com.intuit.karate.graal.JsEngine.eval(JsEngine.java:135)\n- com.intuit.karate.core.ScenarioEngine.evalJs(ScenarioEngine.java:1190)\n- com.intuit.karate.core.ScenarioEngine.evalKarateExpression(ScenarioEngine.java:2143)\n- com.intuit.karate.core.ScenarioEngine.evalKarateExpression(ScenarioEngine.java:2062)\n- com.intuit.karate.core.ScenarioEngine.request(ScenarioEngine.java:533)\n\nsrc\/test\/java\/api.feature:11\n"},{"result":{"nanos":0,"millis":0.0,"status":"skipped"},"step":{"line":12,"prefix":"When","index":2,"text":"method POST"}},{"result":{"nanos":0,"millis":0.0,"status":"skipped"},"step":{"line":13,"prefix":"Then","index":3,"text":"status 201"}},{"result":{"nanos":0,"millis":0.0,"status":"skipped"},"step":{"line":14,"prefix":"And","index":4,"text":"match responce.data.name == 'morpheus'"}},{"result":{"nanos":0,"millis":0.0,"status":"skipped"},"step":{"line":15,"prefix":"And","index":5,"text":"match responce.data.job == 'engineer'"}}],"line":9,"description":"","durationMillis":61.3407,"failed":true,"error":"js failed:\n>>>>\n01: ;\"name\": \"morpheus\", \"job\": \"engineer\"}\n<<<<\norg.graalvm.polyglot.PolyglotException: SyntaxError: Unnamed:1:7 Expected ; but found :\r\n;\"name\": \"morpheus\", \"job\": \"engineer\"}\r\n       ^\n\n- org.graalvm.polyglot.Context.eval(Context.java:425)\n- com.intuit.karate.graal.JsEngine.evalForValue(JsEngine.java:139)\n- com.intuit.karate.graal.JsEngine.eval(JsEngine.java:135)\n- com.intuit.karate.core.ScenarioEngine.evalJs(ScenarioEngine.java:1190)\n- com.intuit.karate.core.ScenarioEngine.evalKarateExpression(ScenarioEngine.java:2143)\n- com.intuit.karate.core.ScenarioEngine.evalKarateExpression(ScenarioEngine.java:2062)\n- com.intuit.karate.core.ScenarioEngine.request(ScenarioEngine.java:533)\n\nsrc\/test\/java\/api.feature:11","executorName":"main","name":"Create a new user","startTime":1699518120194,"refId":"[2:9]","endTime":1699518120256,"exampleIndex":-1},{"sectionIndex":2,"stepResults":[{"result":{"nanos":2580600,"millis":2.5806,"status":"passed"},"step":{"line":19,"prefix":"Given","index":0,"text":"url 'https:\/\/reqres.in\/api\/users\/2'"}},{"result":{"nanos":116948100,"millis":116.9481,"status":"passed"},"step":{"line":20,"prefix":"When","index":1,"text":"method GET"},"stepLog":"13:52:00.287 request:\n1 > GET https:\/\/reqres.in\/api\/users\/2\n1 > Host: reqres.in\n1 > Connection: Keep-Alive\n1 > User-Agent: Apache-HttpClient\/4.5.13 (Java\/17.0.7)\n1 > Accept-Encoding: gzip,deflate\n\n\n13:52:00.389 response time in milliseconds: 100\n1 < 200\n1 < Date: Thu, 09 Nov 2023 08:21:58 GMT\n1 < Content-Type: application\/json; charset=utf-8\n1 < Transfer-Encoding: chunked\n1 < Connection: keep-alive\n1 < X-Powered-By: Express\n1 < Access-Control-Allow-Origin: *\n1 < Etag: W\/\"118-pbdwwFo9SKNhD3Lx5iHJyngpq00\"\n1 < Via: 1.1 vegur\n1 < Cache-Control: max-age=14400\n1 < CF-Cache-Status: HIT\n1 < Age: 2662\n1 < Report-To: {\"endpoints\":[{\"url\":\"https:\\\/\\\/a.nel.cloudflare.com\\\/report\\\/v3?s=WMWkvxsfKVu%2Fg7sWcqM7sHGp0GZtDBQMyP3YVO5oOqLI5kXJeB9IBz42MQywb9ngjEuNYeBWmvJnXjT9vz7YOErEIjEvyvxQsrW5faUBRVUaqOyC5kPddPSmqw%3D%3D\"}],\"group\":\"cf-nel\",\"max_age\":604800}\n1 < NEL: {\"success_fraction\":0,\"report_to\":\"cf-nel\",\"max_age\":604800}\n1 < Vary: Accept-Encoding\n1 < Server: cloudflare\n1 < CF-RAY: 8234a52f5edb48ef-BOM\n{\"data\":{\"id\":2,\"email\":\"janet.weaver@reqres.in\",\"first_name\":\"Janet\",\"last_name\":\"Weaver\",\"avatar\":\"https:\/\/reqres.in\/img\/faces\/2-image.jpg\"},\"support\":{\"url\":\"https:\/\/reqres.in\/#support-heading\",\"text\":\"To keep ReqRes free, contributions towards server costs are appreciated!\"}}\n\n"},{"result":{"nanos":21800,"millis":0.0218,"status":"passed"},"step":{"line":21,"prefix":"Then","index":2,"text":"status 200"}},{"result":{"nanos":64982300,"errorMessage":"js failed:\n>>>>\n01: responce\n<<<<\norg.graalvm.polyglot.PolyglotException: ReferenceError: \"responce\" is not defined\n- <js>.:program(Unnamed:1)\n\nsrc\/test\/java\/api.feature:22","millis":64.9823,"status":"failed"},"step":{"line":22,"prefix":"And","index":3,"text":"match responce.data.id == 2"},"stepLog":"13:52:00.456 src\/test\/java\/api.feature:22\nAnd match responce.data.id == 2\njs failed:\n>>>>\n01: responce\n<<<<\norg.graalvm.polyglot.PolyglotException: ReferenceError: \"responce\" is not defined\n- <js>.:program(Unnamed:1)\n\nsrc\/test\/java\/api.feature:22\n"}],"line":18,"description":"","durationMillis":184.5328,"failed":true,"error":"js failed:\n>>>>\n01: responce\n<<<<\norg.graalvm.polyglot.PolyglotException: ReferenceError: \"responce\" is not defined\n- <js>.:program(Unnamed:1)\n\nsrc\/test\/java\/api.feature:22","executorName":"main","name":"Get single user details","startTime":1699518120271,"refId":"[3:18]","endTime":1699518120456,"exampleIndex":-1},{"sectionIndex":3,"stepResults":[{"result":{"nanos":4620900,"millis":4.6209,"status":"passed"},"step":{"line":26,"prefix":"Given","index":0,"text":"url 'https:\/\/reqres.in\/api\/unknown\/'"}},{"result":{"nanos":3187700,"millis":3.1877,"status":"passed"},"step":{"line":27,"prefix":"And","index":1,"text":"path '30'"}},{"result":{"nanos":635532300,"millis":635.5323,"status":"passed"},"step":{"line":28,"prefix":"When","index":2,"text":"method GET"},"stepLog":"13:52:00.485 request:\n1 > GET https:\/\/reqres.in\/api\/unknown\/30\n1 > Host: reqres.in\n1 > Connection: Keep-Alive\n1 > User-Agent: Apache-HttpClient\/4.5.13 (Java\/17.0.7)\n1 > Accept-Encoding: gzip,deflate\n\n\n13:52:01.110 response time in milliseconds: 624\n1 < 404\n1 < Date: Thu, 09 Nov 2023 08:21:58 GMT\n1 < Content-Type: application\/json; charset=utf-8\n1 < Content-Length: 2\n1 < Connection: keep-alive\n1 < Report-To: {\"group\":\"heroku-nel\",\"max_age\":3600,\"endpoints\":[{\"url\":\"https:\/\/nel.heroku.com\/reports?ts=1699518118&sid=c4c9725f-1ab0-44d8-820f-430df2718e11&s=vrcBdrFT4QP3sQozYiQzWhnOm5dQtdxbWkw6j8DSOYA%3D\"}]}\n1 < Reporting-Endpoints: heroku-nel=https:\/\/nel.heroku.com\/reports?ts=1699518118&sid=c4c9725f-1ab0-44d8-820f-430df2718e11&s=vrcBdrFT4QP3sQozYiQzWhnOm5dQtdxbWkw6j8DSOYA%3D\n1 < Nel: {\"report_to\":\"heroku-nel\",\"max_age\":3600,\"success_fraction\":0.005,\"failure_fraction\":0.05,\"response_headers\":[\"Via\"]}\n1 < X-Powered-By: Express\n1 < Access-Control-Allow-Origin: *\n1 < Etag: W\/\"2-vyGp6PvFo4RvsFtPoIWeCReyIC8\"\n1 < Via: 1.1 vegur\n1 < Cache-Control: max-age=14400\n1 < CF-Cache-Status: EXPIRED\n1 < Vary: Accept-Encoding\n1 < Server: cloudflare\n1 < CF-RAY: 8234a531581b8958-SIN\n{}\n\n"},{"result":{"nanos":21700,"millis":0.0217,"status":"passed"},"step":{"line":29,"prefix":"Then","index":3,"text":"status 404"}}],"executorName":"main","line":25,"name":"Get user details-user not found","description":"","durationMillis":643.3626,"startTime":1699518120465,"failed":false,"refId":"[4:25]","endTime":1699518121111,"exampleIndex":-1},{"sectionIndex":4,"stepResults":[{"result":{"nanos":412700,"millis":0.4127,"status":"passed"},"step":{"line":32,"prefix":"Given","index":0,"text":"url 'https:\/\/reqres.in\/api\/unknown\/'"}},{"result":{"nanos":774900,"millis":0.7749,"status":"passed"},"step":{"line":33,"prefix":"And","index":1,"text":"path '2'"}},{"result":{"nanos":102321600,"millis":102.3216,"status":"passed"},"step":{"line":34,"prefix":"When","index":2,"text":"method GET"},"stepLog":"13:52:01.121 request:\n1 > GET https:\/\/reqres.in\/api\/unknown\/2\n1 > Host: reqres.in\n1 > Connection: Keep-Alive\n1 > User-Agent: Apache-HttpClient\/4.5.13 (Java\/17.0.7)\n1 > Accept-Encoding: gzip,deflate\n\n\n13:52:01.220 response time in milliseconds: 99\n1 < 200\n1 < Date: Thu, 09 Nov 2023 08:21:59 GMT\n1 < Content-Type: application\/json; charset=utf-8\n1 < Transfer-Encoding: chunked\n1 < Connection: keep-alive\n1 < Report-To: {\"group\":\"heroku-nel\",\"max_age\":3600,\"endpoints\":[{\"url\":\"https:\/\/nel.heroku.com\/reports?ts=1699349609&sid=c4c9725f-1ab0-44d8-820f-430df2718e11&s=mjZr9BQk924Dngop2VnpwRRGGX2ssutj%2FLEmlkb9i9k%3D\"}]}\n1 < Reporting-Endpoints: heroku-nel=https:\/\/nel.heroku.com\/reports?ts=1699349609&sid=c4c9725f-1ab0-44d8-820f-430df2718e11&s=mjZr9BQk924Dngop2VnpwRRGGX2ssutj%2FLEmlkb9i9k%3D\n1 < Nel: {\"report_to\":\"heroku-nel\",\"max_age\":3600,\"success_fraction\":0.005,\"failure_fraction\":0.05,\"response_headers\":[\"Via\"]}\n1 < X-Powered-By: Express\n1 < Access-Control-Allow-Origin: *\n1 < Etag: W\/\"e8-ov4wWh4\/OY1IMQMqWgskYtOFnVs\"\n1 < Via: 1.1 vegur\n1 < Cache-Control: max-age=14400\n1 < CF-Cache-Status: HIT\n1 < Age: 5498\n1 < Vary: Accept-Encoding\n1 < Server: cloudflare\n1 < CF-RAY: 8234a5348bbe3b85-BOM\n{\"data\":{\"id\":2,\"name\":\"fuchsia rose\",\"year\":2001,\"color\":\"#C74375\",\"pantone_value\":\"17-2031\"},\"support\":{\"url\":\"https:\/\/reqres.in\/#support-heading\",\"text\":\"To keep ReqRes free, contributions towards server costs are appreciated!\"}}\n\n"},{"result":{"nanos":18800,"millis":0.0188,"status":"passed"},"step":{"line":35,"prefix":"Then","index":3,"text":"status 200"}}],"executorName":"main","line":31,"name":"Get user print the response","description":"","durationMillis":103.528,"startTime":1699518121117,"failed":false,"refId":"[5:31]","endTime":1699518121222,"exampleIndex":-1},{"sectionIndex":5,"stepResults":[{"result":{"nanos":284900,"millis":0.2849,"status":"passed"},"step":{"line":38,"prefix":"Given","index":0,"text":"url 'https:\/\/reqres.in\/api\/users\/2'"}},{"result":{"nanos":69073300,"millis":69.0733,"status":"passed"},"step":{"line":39,"prefix":"And","index":1,"text":"request {\"name\": \"Allen\"}"}},{"result":{"nanos":642512000,"millis":642.512,"status":"passed"},"step":{"line":40,"prefix":"When","index":2,"text":"method PUT"},"stepLog":"13:52:01.477 request:\n1 > PUT https:\/\/reqres.in\/api\/users\/2\n1 > Content-Type: application\/json; charset=UTF-8\n1 > Content-Length: 16\n1 > Host: reqres.in\n1 > Connection: Keep-Alive\n1 > User-Agent: Apache-HttpClient\/4.5.13 (Java\/17.0.7)\n1 > Accept-Encoding: gzip,deflate\n{\"name\":\"Allen\"}\n\n13:52:01.937 response time in milliseconds: 460\n1 < 200\n1 < Date: Thu, 09 Nov 2023 08:21:59 GMT\n1 < Content-Type: application\/json; charset=utf-8\n1 < Transfer-Encoding: chunked\n1 < Connection: keep-alive\n1 < Report-To: {\"group\":\"heroku-nel\",\"max_age\":3600,\"endpoints\":[{\"url\":\"https:\/\/nel.heroku.com\/reports?ts=1699518119&sid=c4c9725f-1ab0-44d8-820f-430df2718e11&s=vmJnPba65%2FrWLxZ03lCaRALSJPwkDZE2wv4SJhyBpy0%3D\"}]}\n1 < Reporting-Endpoints: heroku-nel=https:\/\/nel.heroku.com\/reports?ts=1699518119&sid=c4c9725f-1ab0-44d8-820f-430df2718e11&s=vmJnPba65%2FrWLxZ03lCaRALSJPwkDZE2wv4SJhyBpy0%3D\n1 < Nel: {\"report_to\":\"heroku-nel\",\"max_age\":3600,\"success_fraction\":0.005,\"failure_fraction\":0.05,\"response_headers\":[\"Via\"]}\n1 < X-Powered-By: Express\n1 < Access-Control-Allow-Origin: *\n1 < Etag: W\/\"37-yLaJKz7QZ7oZPVOqGGi8Vq5Oy\/g\"\n1 < Via: 1.1 vegur\n1 < CF-Cache-Status: DYNAMIC\n1 < Vary: Accept-Encoding\n1 < Server: cloudflare\n1 < CF-RAY: 8234a536a9f2401f-BOM\n{\"name\":\"Allen\",\"updatedAt\":\"2023-11-09T08:21:59.776Z\"}\n\n"},{"result":{"nanos":12400,"millis":0.0124,"status":"passed"},"step":{"line":41,"prefix":"Then","index":3,"text":"status 200"}},{"result":{"nanos":762000,"errorMessage":"js failed:\n>>>>\n01: responce\n<<<<\norg.graalvm.polyglot.PolyglotException: ReferenceError: \"responce\" is not defined\n- <js>.:program(Unnamed:1)\n\nsrc\/test\/java\/api.feature:42","millis":0.762,"status":"failed"},"step":{"line":42,"prefix":"And","index":4,"text":"match responce.data.name == 'Allen'"},"stepLog":"13:52:01.940 src\/test\/java\/api.feature:42\nAnd match responce.data.name == 'Allen'\njs failed:\n>>>>\n01: responce\n<<<<\norg.graalvm.polyglot.PolyglotException: ReferenceError: \"responce\" is not defined\n- <js>.:program(Unnamed:1)\n\nsrc\/test\/java\/api.feature:42\n"},{"result":{"nanos":0,"millis":0.0,"status":"skipped"},"step":{"line":44,"prefix":"*","index":5,"text":"print response"}}],"line":37,"description":"","durationMillis":712.6446,"failed":true,"error":"js failed:\n>>>>\n01: responce\n<<<<\norg.graalvm.polyglot.PolyglotException: ReferenceError: \"responce\" is not defined\n- <js>.:program(Unnamed:1)\n\nsrc\/test\/java\/api.feature:42","executorName":"main","name":"Update user details","startTime":1699518121227,"refId":"[6:37]","endTime":1699518121940,"exampleIndex":-1},{"sectionIndex":6,"stepResults":[{"result":{"nanos":276100,"millis":0.2761,"status":"passed"},"step":{"line":47,"prefix":"Given","index":0,"text":"url 'https:\/\/reqres.in\/api\/unknown\/'"}},{"result":{"nanos":1011200,"millis":1.0112,"status":"passed"},"step":{"line":48,"prefix":"And","index":1,"text":"path '1'"}},{"result":{"nanos":65395200,"millis":65.3952,"status":"passed"},"step":{"line":49,"prefix":"When","index":2,"text":"method GET"},"stepLog":"13:52:01.949 request:\n1 > GET https:\/\/reqres.in\/api\/unknown\/1\n1 > Host: reqres.in\n1 > Connection: Keep-Alive\n1 > User-Agent: Apache-HttpClient\/4.5.13 (Java\/17.0.7)\n1 > Accept-Encoding: gzip,deflate\n\n\n13:52:02.011 response time in milliseconds: 62\n1 < 200\n1 < Date: Thu, 09 Nov 2023 08:21:59 GMT\n1 < Content-Type: application\/json; charset=utf-8\n1 < Transfer-Encoding: chunked\n1 < Connection: keep-alive\n1 < Report-To: {\"group\":\"heroku-nel\",\"max_age\":3600,\"endpoints\":[{\"url\":\"https:\/\/nel.heroku.com\/reports?ts=1699517317&sid=c4c9725f-1ab0-44d8-820f-430df2718e11&s=YcsBD%2BddhHe2gANErez55IX%2FjjnFJYIe3T6%2FuBZz3Zc%3D\"}]}\n1 < Reporting-Endpoints: heroku-nel=https:\/\/nel.heroku.com\/reports?ts=1699517317&sid=c4c9725f-1ab0-44d8-820f-430df2718e11&s=YcsBD%2BddhHe2gANErez55IX%2FjjnFJYIe3T6%2FuBZz3Zc%3D\n1 < Nel: {\"report_to\":\"heroku-nel\",\"max_age\":3600,\"success_fraction\":0.005,\"failure_fraction\":0.05,\"response_headers\":[\"Via\"]}\n1 < X-Powered-By: Express\n1 < Access-Control-Allow-Origin: *\n1 < Etag: W\/\"e4-2W7ZNEqb4DWjJCUXzZoMFmGhgio\"\n1 < Via: 1.1 vegur\n1 < Cache-Control: max-age=14400\n1 < CF-Cache-Status: HIT\n1 < Age: 802\n1 < Vary: Accept-Encoding\n1 < Server: cloudflare\n1 < CF-RAY: 8234a5397fdc47d7-BOM\n{\"data\":{\"id\":1,\"name\":\"cerulean\",\"year\":2000,\"color\":\"#98B2D1\",\"pantone_value\":\"15-4020\"},\"support\":{\"url\":\"https:\/\/reqres.in\/#support-heading\",\"text\":\"To keep ReqRes free, contributions towards server costs are appreciated!\"}}\n\n"},{"result":{"nanos":18100,"millis":0.0181,"status":"passed"},"step":{"line":50,"prefix":"Then","index":3,"text":"status 200"}},{"result":{"nanos":172780500,"millis":172.7805,"status":"passed"},"step":{"line":51,"prefix":"*","index":4,"text":"print response"},"stepLog":"13:52:02.185 [print] {\n  \"data\": {\n    \"id\": 1,\n    \"name\": \"cerulean\",\n    \"year\": 2000,\n    \"color\": \"#98B2D1\",\n    \"pantone_value\": \"15-4020\"\n  },\n  \"support\": {\n    \"url\": \"https:\/\/reqres.in\/#support-heading\",\n    \"text\": \"To keep ReqRes free, contributions towards server costs are appreciated!\"\n  }\n}\n \n"},{"result":{"nanos":32257200,"millis":32.2572,"status":"passed"},"step":{"line":52,"prefix":"*","index":5,"text":"def jsonResponse = response"}},{"result":{"nanos":1264300,"millis":1.2643,"status":"passed"},"step":{"line":53,"prefix":"*","index":6,"text":"def actualName = jsonResponse.data.name"}},{"result":{"nanos":2175100,"millis":2.1751,"status":"passed"},"step":{"line":54,"prefix":"*","index":7,"text":"print actualName"},"stepLog":"13:52:02.221 [print] cerulean \n"}],"executorName":"main","line":46,"name":"Get user details and print the name using json","description":"","durationMillis":275.1777,"startTime":1699518121946,"failed":false,"refId":"[7:46]","endTime":1699518122222,"exampleIndex":-1},{"sectionIndex":7,"stepResults":[{"result":{"nanos":266400,"millis":0.2664,"status":"passed"},"step":{"line":57,"prefix":"Given","index":0,"text":"url 'https:\/\/reqres.in\/api\/users\/2'"}},{"result":{"nanos":85234500,"millis":85.2345,"status":"passed"},"step":{"line":58,"prefix":"When","index":1,"text":"method GET"},"stepLog":"13:52:02.232 request:\n1 > GET https:\/\/reqres.in\/api\/users\/2\n1 > Host: reqres.in\n1 > Connection: Keep-Alive\n1 > User-Agent: Apache-HttpClient\/4.5.13 (Java\/17.0.7)\n1 > Accept-Encoding: gzip,deflate\n\n\n13:52:02.312 response time in milliseconds: 78\n1 < 200\n1 < Date: Thu, 09 Nov 2023 08:22:00 GMT\n1 < Content-Type: application\/json; charset=utf-8\n1 < Transfer-Encoding: chunked\n1 < Connection: keep-alive\n1 < X-Powered-By: Express\n1 < Access-Control-Allow-Origin: *\n1 < Etag: W\/\"118-pbdwwFo9SKNhD3Lx5iHJyngpq00\"\n1 < Via: 1.1 vegur\n1 < Cache-Control: max-age=14400\n1 < CF-Cache-Status: HIT\n1 < Age: 2664\n1 < Report-To: {\"endpoints\":[{\"url\":\"https:\\\/\\\/a.nel.cloudflare.com\\\/report\\\/v3?s=y9dUzxZk9BwJovngcYX9bxTPkh%2F5ENHf7ZethSl7eTTOirdEScxerSz5kOzIVXs7ZyGsMoDXjHLVIVu22YE%2BLHtOKKOyBKrXqzSyQyhTqnGCTMeTcUTCv1qDow%3D%3D\"}],\"group\":\"cf-nel\",\"max_age\":604800}\n1 < NEL: {\"success_fraction\":0,\"report_to\":\"cf-nel\",\"max_age\":604800}\n1 < Vary: Accept-Encoding\n1 < Server: cloudflare\n1 < CF-RAY: 8234a53b5c8c4726-BOM\n{\"data\":{\"id\":2,\"email\":\"janet.weaver@reqres.in\",\"first_name\":\"Janet\",\"last_name\":\"Weaver\",\"avatar\":\"https:\/\/reqres.in\/img\/faces\/2-image.jpg\"},\"support\":{\"url\":\"https:\/\/reqres.in\/#support-heading\",\"text\":\"To keep ReqRes free, contributions towards server costs are appreciated!\"}}\n\n"},{"result":{"nanos":18700,"millis":0.0187,"status":"passed"},"step":{"line":59,"prefix":"Then","index":2,"text":"status 200"}},{"result":{"nanos":2650400,"millis":2.6504,"status":"passed"},"step":{"line":60,"prefix":"*","index":3,"text":"print response"},"stepLog":"13:52:02.314 [print] {\n  \"data\": {\n    \"id\": 2,\n    \"email\": \"janet.weaver@reqres.in\",\n    \"first_name\": \"Janet\",\n    \"last_name\": \"Weaver\",\n    \"avatar\": \"https:\/\/reqres.in\/img\/faces\/2-image.jpg\"\n  },\n  \"support\": {\n    \"url\": \"https:\/\/reqres.in\/#support-heading\",\n    \"text\": \"To keep ReqRes free, contributions towards server costs are appreciated!\"\n  }\n}\n \n"},{"result":{"nanos":1284900,"millis":1.2849,"status":"passed"},"step":{"line":61,"prefix":"*","index":4,"text":"def jsonResponse = response"}},{"result":{"nanos":2084800,"millis":2.0848,"status":"passed"},"step":{"line":62,"prefix":"*","index":5,"text":"def email = jsonResponse.data.email"}},{"result":{"nanos":2021800,"millis":2.0218,"status":"passed"},"step":{"line":63,"prefix":"*","index":6,"text":"print email"},"stepLog":"13:52:02.321 [print] janet.weaver@reqres.in \n"},{"result":{"nanos":19081400,"millis":19.0814,"status":"passed"},"step":{"line":64,"prefix":"*","index":7,"text":"match email == 'janet.weaver@reqres.in'"}}],"executorName":"main","line":56,"name":"Get user details and verify user email using json path","description":"","durationMillis":112.6429,"startTime":1699518122227,"failed":false,"refId":"[8:56]","endTime":1699518122341,"exampleIndex":-1},{"sectionIndex":8,"stepResults":[{"result":{"nanos":665500,"millis":0.6655,"status":"passed"},"step":{"line":67,"prefix":"Given","index":0,"text":"url 'https:\/\/reqres.in\/api\/users\/2'"}},{"result":{"nanos":283357700,"millis":283.3577,"status":"passed"},"step":{"line":68,"prefix":"When","index":1,"text":"method GET"},"stepLog":"13:52:02.359 request:\n1 > GET https:\/\/reqres.in\/api\/users\/2\n1 > Host: reqres.in\n1 > Connection: Keep-Alive\n1 > User-Agent: Apache-HttpClient\/4.5.13 (Java\/17.0.7)\n1 > Accept-Encoding: gzip,deflate\n\n\n13:52:02.635 response time in milliseconds: 274\n1 < 200\n1 < Date: Thu, 09 Nov 2023 08:22:00 GMT\n1 < Content-Type: application\/json; charset=utf-8\n1 < Transfer-Encoding: chunked\n1 < Connection: keep-alive\n1 < Report-To: {\"group\":\"heroku-nel\",\"max_age\":3600,\"endpoints\":[{\"url\":\"https:\/\/nel.heroku.com\/reports?ts=1699465080&sid=c4c9725f-1ab0-44d8-820f-430df2718e11&s=xdIsyGiauupgaWLGgxDFWupAsSKaYpJa05dGhFObqHk%3D\"}]}\n1 < Reporting-Endpoints: heroku-nel=https:\/\/nel.heroku.com\/reports?ts=1699465080&sid=c4c9725f-1ab0-44d8-820f-430df2718e11&s=xdIsyGiauupgaWLGgxDFWupAsSKaYpJa05dGhFObqHk%3D\n1 < Nel: {\"report_to\":\"heroku-nel\",\"max_age\":3600,\"success_fraction\":0.005,\"failure_fraction\":0.05,\"response_headers\":[\"Via\"]}\n1 < X-Powered-By: Express\n1 < Access-Control-Allow-Origin: *\n1 < Etag: W\/\"118-pbdwwFo9SKNhD3Lx5iHJyngpq00\"\n1 < Via: 1.1 vegur\n1 < Cache-Control: max-age=14400\n1 < CF-Cache-Status: HIT\n1 < Age: 2237\n1 < Vary: Accept-Encoding\n1 < Server: cloudflare\n1 < CF-RAY: 8234a53d3b2b4d81-SIN\n{\"data\":{\"id\":2,\"email\":\"janet.weaver@reqres.in\",\"first_name\":\"Janet\",\"last_name\":\"Weaver\",\"avatar\":\"https:\/\/reqres.in\/img\/faces\/2-image.jpg\"},\"support\":{\"url\":\"https:\/\/reqres.in\/#support-heading\",\"text\":\"To keep ReqRes free, contributions towards server costs are appreciated!\"}}\n\n"},{"result":{"nanos":2877600,"millis":2.8776,"status":"passed"},"step":{"line":69,"prefix":"*","index":2,"text":"print response"},"stepLog":"13:52:02.639 [print] {\n  \"data\": {\n    \"id\": 2,\n    \"email\": \"janet.weaver@reqres.in\",\n    \"first_name\": \"Janet\",\n    \"last_name\": \"Weaver\",\n    \"avatar\": \"https:\/\/reqres.in\/img\/faces\/2-image.jpg\"\n  },\n  \"support\": {\n    \"url\": \"https:\/\/reqres.in\/#support-heading\",\n    \"text\": \"To keep ReqRes free, contributions towards server costs are appreciated!\"\n  }\n}\n \n"},{"result":{"nanos":611800,"millis":0.6118,"status":"passed"},"step":{"line":70,"prefix":"*","index":3,"text":"def jsonResponse = response"}},{"result":{"nanos":1208100,"millis":1.2081,"status":"passed"},"step":{"line":71,"prefix":"*","index":4,"text":"def name = jsonResponse.data.first_name"}},{"result":{"nanos":1780400,"millis":1.7804,"status":"passed"},"step":{"line":72,"prefix":"*","index":5,"text":"print name"},"stepLog":"13:52:02.642 [print] Janet \n"},{"result":{"nanos":2219100,"errorMessage":"match failed: EQUALS\n  $ | not equal (STRING:STRING)\n  'Janet'\n  'Ishwar'\n\nsrc\/test\/java\/api.feature:73","millis":2.2191,"status":"failed"},"step":{"line":73,"prefix":"*","index":6,"text":"match name == 'Ishwar'"},"stepLog":"13:52:02.645 src\/test\/java\/api.feature:73\n* match name == 'Ishwar'\nmatch failed: EQUALS\n  $ | not equal (STRING:STRING)\n  'Janet'\n  'Ishwar'\n\nsrc\/test\/java\/api.feature:73\n"},{"result":{"nanos":0,"millis":0.0,"status":"skipped"},"step":{"line":74,"prefix":"Then","index":7,"text":"status 203"}}],"line":66,"description":"","durationMillis":292.7202,"failed":true,"error":"match failed: EQUALS\n  $ | not equal (STRING:STRING)\n  'Janet'\n  'Ishwar'\n\nsrc\/test\/java\/api.feature:73","executorName":"main","name":"Get user details and verify.If response is invalid get-Accepted is not equal","startTime":1699518122351,"refId":"[9:66]","endTime":1699518122645,"exampleIndex":-1}],"callDepth":0,"name":"Testing Reqres Endpoints","description":"","resultDate":"2023-11-09 01:52:02 pm","durationMillis":4657.8191,"passedCount":5}