{"failedCount":4,"prefixedPath":"src\/test\/java\/api.feature","packageQualifiedName":"src.test.java.api","loopIndex":-1,"relativePath":"src\/test\/java\/api.feature","scenarioResults":[{"sectionIndex":0,"stepResults":[{"result":{"nanos":155846000,"millis":155.846,"status":"passed"},"step":{"line":5,"prefix":"Given","index":0,"text":"url 'https:\/\/reqres.in\/api\/users'"}},{"result":{"nanos":2751133300,"millis":2751.1333,"status":"passed"},"step":{"line":6,"prefix":"When","index":1,"text":"method GET"},"stepLog":"13:35:27.935 request:\n1 > GET https:\/\/reqres.in\/api\/users\n1 > Host: reqres.in\n1 > Connection: Keep-Alive\n1 > User-Agent: Apache-HttpClient\/4.5.13 (Java\/17.0.7)\n1 > Accept-Encoding: gzip,deflate\n\n\n13:35:28.724 response time in milliseconds: 781\n1 < 200\n1 < Date: Thu, 09 Nov 2023 08:05:26 GMT\n1 < Content-Type: application\/json; charset=utf-8\n1 < Transfer-Encoding: chunked\n1 < Connection: keep-alive\n1 < Report-To: {\"group\":\"heroku-nel\",\"max_age\":3600,\"endpoints\":[{\"url\":\"https:\/\/nel.heroku.com\/reports?ts=1699511940&sid=c4c9725f-1ab0-44d8-820f-430df2718e11&s=S30N9NewKcr9r3kP6U0gMkpTrt0ynKtNHFMI%2FHUFS9E%3D\"}]}\n1 < Reporting-Endpoints: heroku-nel=https:\/\/nel.heroku.com\/reports?ts=1699511940&sid=c4c9725f-1ab0-44d8-820f-430df2718e11&s=S30N9NewKcr9r3kP6U0gMkpTrt0ynKtNHFMI%2FHUFS9E%3D\n1 < Nel: {\"report_to\":\"heroku-nel\",\"max_age\":3600,\"success_fraction\":0.005,\"failure_fraction\":0.05,\"response_headers\":[\"Via\"]}\n1 < X-Powered-By: Express\n1 < Access-Control-Allow-Origin: *\n1 < Etag: W\/\"3e4-2RLXvr5wTg9YQ6aH95CkYoFNuO8\"\n1 < Via: 1.1 vegur\n1 < Cache-Control: max-age=14400\n1 < CF-Cache-Status: HIT\n1 < Age: 5186\n1 < Vary: Accept-Encoding\n1 < Server: cloudflare\n1 < CF-RAY: 82348cf91b633cdc-BOM\n{\"page\":1,\"per_page\":6,\"total\":12,\"total_pages\":2,\"data\":[{\"id\":1,\"email\":\"george.bluth@reqres.in\",\"first_name\":\"George\",\"last_name\":\"Bluth\",\"avatar\":\"https:\/\/reqres.in\/img\/faces\/1-image.jpg\"},{\"id\":2,\"email\":\"janet.weaver@reqres.in\",\"first_name\":\"Janet\",\"last_name\":\"Weaver\",\"avatar\":\"https:\/\/reqres.in\/img\/faces\/2-image.jpg\"},{\"id\":3,\"email\":\"emma.wong@reqres.in\",\"first_name\":\"Emma\",\"last_name\":\"Wong\",\"avatar\":\"https:\/\/reqres.in\/img\/faces\/3-image.jpg\"},{\"id\":4,\"email\":\"eve.holt@reqres.in\",\"first_name\":\"Eve\",\"last_name\":\"Holt\",\"avatar\":\"https:\/\/reqres.in\/img\/faces\/4-image.jpg\"},{\"id\":5,\"email\":\"charles.morris@reqres.in\",\"first_name\":\"Charles\",\"last_name\":\"Morris\",\"avatar\":\"https:\/\/reqres.in\/img\/faces\/5-image.jpg\"},{\"id\":6,\"email\":\"tracey.ramos@reqres.in\",\"first_name\":\"Tracey\",\"last_name\":\"Ramos\",\"avatar\":\"https:\/\/reqres.in\/img\/faces\/6-image.jpg\"}],\"support\":{\"url\":\"https:\/\/reqres.in\/#support-heading\",\"text\":\"To keep ReqRes free, contributions towards server costs are appreciated!\"}}\n\n"},{"result":{"nanos":45200,"millis":0.0452,"status":"passed"},"step":{"line":7,"prefix":"Then","index":2,"text":"status 200"}}],"executorName":"main","line":4,"name":"Get list of users","description":"","durationMillis":2907.0245,"startTime":1699517125896,"failed":false,"refId":"[1:4]","endTime":1699517128856,"exampleIndex":-1},{"sectionIndex":1,"stepResults":[{"result":{"nanos":2943000,"millis":2.943,"status":"passed"},"step":{"line":10,"prefix":"Given","index":0,"text":"url 'https:\/\/reqres.in\/api\/users'"}},{"result":{"nanos":69893500,"errorMessage":"js failed:\n>>>>\n01: request{\"name\": \"morpheus\", \"job\": \"leader\"}\n<<<<\norg.graalvm.polyglot.PolyglotException: SyntaxError: Unnamed:1:7 Expected ; but found {\r\nrequest{\"name\": \"morpheus\", \"job\": \"leader\"}\r\n       ^\n\n- org.graalvm.polyglot.Context.eval(Context.java:425)\n- com.intuit.karate.graal.JsEngine.evalForValue(JsEngine.java:139)\n- com.intuit.karate.graal.JsEngine.eval(JsEngine.java:135)\n- com.intuit.karate.core.ScenarioEngine.evalJs(ScenarioEngine.java:1190)\n- com.intuit.karate.ScenarioActions.eval(ScenarioActions.java:388)\n- java.base\/jdk.internal.reflect.NativeMethodAccessorImpl.invoke0(Native Method)\n- java.base\/jdk.internal.reflect.NativeMethodAccessorImpl.invoke(NativeMethodAccessorImpl.java:77)\n\nsrc\/test\/java\/api.feature:11","millis":69.8935,"status":"failed"},"step":{"line":11,"prefix":"And","index":1,"text":"request{\"name\": \"morpheus\", \"job\": \"leader\"}"},"stepLog":"13:35:28.966 src\/test\/java\/api.feature:11\nAnd request{\"name\": \"morpheus\", \"job\": \"leader\"}\njs failed:\n>>>>\n01: request{\"name\": \"morpheus\", \"job\": \"leader\"}\n<<<<\norg.graalvm.polyglot.PolyglotException: SyntaxError: Unnamed:1:7 Expected ; but found {\r\nrequest{\"name\": \"morpheus\", \"job\": \"leader\"}\r\n       ^\n\n- org.graalvm.polyglot.Context.eval(Context.java:425)\n- com.intuit.karate.graal.JsEngine.evalForValue(JsEngine.java:139)\n- com.intuit.karate.graal.JsEngine.eval(JsEngine.java:135)\n- com.intuit.karate.core.ScenarioEngine.evalJs(ScenarioEngine.java:1190)\n- com.intuit.karate.ScenarioActions.eval(ScenarioActions.java:388)\n- java.base\/jdk.internal.reflect.NativeMethodAccessorImpl.invoke0(Native Method)\n- java.base\/jdk.internal.reflect.NativeMethodAccessorImpl.invoke(NativeMethodAccessorImpl.java:77)\n\nsrc\/test\/java\/api.feature:11\n"},{"result":{"nanos":0,"millis":0.0,"status":"skipped"},"step":{"line":12,"prefix":"When","index":2,"text":"method POST"}},{"result":{"nanos":0,"millis":0.0,"status":"skipped"},"step":{"line":13,"prefix":"Then","index":3,"text":"status 201"}},{"result":{"nanos":0,"millis":0.0,"status":"skipped"},"step":{"line":14,"prefix":"And","index":4,"text":"match responce.data name= \"morpheus\""}},{"result":{"nanos":0,"millis":0.0,"status":"skipped"},"step":{"line":15,"prefix":"And","index":5,"text":"match responce.data job = \"leader\""}}],"line":9,"description":"","durationMillis":72.8365,"failed":true,"error":"js failed:\n>>>>\n01: request{\"name\": \"morpheus\", \"job\": \"leader\"}\n<<<<\norg.graalvm.polyglot.PolyglotException: SyntaxError: Unnamed:1:7 Expected ; but found {\r\nrequest{\"name\": \"morpheus\", \"job\": \"leader\"}\r\n       ^\n\n- org.graalvm.polyglot.Context.eval(Context.java:425)\n- com.intuit.karate.graal.JsEngine.evalForValue(JsEngine.java:139)\n- com.intuit.karate.graal.JsEngine.eval(JsEngine.java:135)\n- com.intuit.karate.core.ScenarioEngine.evalJs(ScenarioEngine.java:1190)\n- com.intuit.karate.ScenarioActions.eval(ScenarioActions.java:388)\n- java.base\/jdk.internal.reflect.NativeMethodAccessorImpl.invoke0(Native Method)\n- java.base\/jdk.internal.reflect.NativeMethodAccessorImpl.invoke(NativeMethodAccessorImpl.java:77)\n\nsrc\/test\/java\/api.feature:11","executorName":"main","name":"Create a new user","startTime":1699517128891,"refId":"[2:9]","endTime":1699517128966,"exampleIndex":-1},{"sectionIndex":2,"stepResults":[{"result":{"nanos":996100,"millis":0.9961,"status":"passed"},"step":{"line":19,"prefix":"Given","index":0,"text":"url 'https:\/\/reqres.in\/api\/users\/2'"}},{"result":{"nanos":120605200,"millis":120.6052,"status":"passed"},"step":{"line":20,"prefix":"When","index":1,"text":"method GET"},"stepLog":"13:35:28.982 request:\n1 > GET https:\/\/reqres.in\/api\/users\/2\n1 > Host: reqres.in\n1 > Connection: Keep-Alive\n1 > User-Agent: Apache-HttpClient\/4.5.13 (Java\/17.0.7)\n1 > Accept-Encoding: gzip,deflate\n\n\n13:35:29.095 response time in milliseconds: 98\n1 < 200\n1 < Date: Thu, 09 Nov 2023 08:05:26 GMT\n1 < Content-Type: application\/json; charset=utf-8\n1 < Transfer-Encoding: chunked\n1 < Connection: keep-alive\n1 < X-Powered-By: Express\n1 < Access-Control-Allow-Origin: *\n1 < Etag: W\/\"118-pbdwwFo9SKNhD3Lx5iHJyngpq00\"\n1 < Via: 1.1 vegur\n1 < Cache-Control: max-age=14400\n1 < CF-Cache-Status: HIT\n1 < Age: 708\n1 < Report-To: {\"endpoints\":[{\"url\":\"https:\\\/\\\/a.nel.cloudflare.com\\\/report\\\/v3?s=KB2QIwwx8Y9TZu%2FQnDfnMpI%2BHKnZQe3e%2F3ZusN22%2FuDRX%2FDIbRUppk8mAP1Xj4E8XfMnMXMVtyNKJhzS8w2vgNKxpLeOW86lxzfWU0SnnonE7Brhl1fhyArhHQ%3D%3D\"}],\"group\":\"cf-nel\",\"max_age\":604800}\n1 < NEL: {\"success_fraction\":0,\"report_to\":\"cf-nel\",\"max_age\":604800}\n1 < Vary: Accept-Encoding\n1 < Server: cloudflare\n1 < CF-RAY: 82348cfbac243b27-BOM\n{\"data\":{\"id\":2,\"email\":\"janet.weaver@reqres.in\",\"first_name\":\"Janet\",\"last_name\":\"Weaver\",\"avatar\":\"https:\/\/reqres.in\/img\/faces\/2-image.jpg\"},\"support\":{\"url\":\"https:\/\/reqres.in\/#support-heading\",\"text\":\"To keep ReqRes free, contributions towards server costs are appreciated!\"}}\n\n"},{"result":{"nanos":4891600,"millis":4.8916,"status":"passed"},"step":{"line":21,"prefix":"Then","index":2,"text":"status 200"}},{"result":{"nanos":64557800,"errorMessage":"js failed:\n>>>>\n01: responce.data\n<<<<\norg.graalvm.polyglot.PolyglotException: ReferenceError: \"responce\" is not defined\n- <js>.:program(Unnamed:1)\n\nsrc\/test\/java\/api.feature:22","millis":64.5578,"status":"failed"},"step":{"line":22,"prefix":"And","index":3,"text":"match responce.data id == 2"},"stepLog":"13:35:29.169 src\/test\/java\/api.feature:22\nAnd match responce.data id == 2\njs failed:\n>>>>\n01: responce.data\n<<<<\norg.graalvm.polyglot.PolyglotException: ReferenceError: \"responce\" is not defined\n- <js>.:program(Unnamed:1)\n\nsrc\/test\/java\/api.feature:22\n"}],"line":18,"description":"","durationMillis":191.0507,"failed":true,"error":"js failed:\n>>>>\n01: responce.data\n<<<<\norg.graalvm.polyglot.PolyglotException: ReferenceError: \"responce\" is not defined\n- <js>.:program(Unnamed:1)\n\nsrc\/test\/java\/api.feature:22","executorName":"main","name":"Get single user details","startTime":1699517128976,"refId":"[3:18]","endTime":1699517129169,"exampleIndex":-1},{"sectionIndex":3,"stepResults":[{"result":{"nanos":2235700,"millis":2.2357,"status":"passed"},"step":{"line":26,"prefix":"Given","index":0,"text":"url 'https:\/\/reqres.in\/api\/unknown\/'"}},{"result":{"nanos":947300,"millis":0.9473,"status":"passed"},"step":{"line":27,"prefix":"And","index":1,"text":"path '30'"}},{"result":{"nanos":644437900,"millis":644.4379,"status":"passed"},"step":{"line":28,"prefix":"When","index":2,"text":"method GET"},"stepLog":"13:35:29.193 request:\n1 > GET https:\/\/reqres.in\/api\/unknown\/30\n1 > Host: reqres.in\n1 > Connection: Keep-Alive\n1 > User-Agent: Apache-HttpClient\/4.5.13 (Java\/17.0.7)\n1 > Accept-Encoding: gzip,deflate\n\n\n13:35:29.829 response time in milliseconds: 634\n1 < 404\n1 < Date: Thu, 09 Nov 2023 08:05:27 GMT\n1 < Content-Type: application\/json; charset=utf-8\n1 < Content-Length: 2\n1 < Connection: keep-alive\n1 < X-Powered-By: Express\n1 < Access-Control-Allow-Origin: *\n1 < Etag: W\/\"2-vyGp6PvFo4RvsFtPoIWeCReyIC8\"\n1 < Via: 1.1 vegur\n1 < Cache-Control: max-age=14400\n1 < CF-Cache-Status: EXPIRED\n1 < Report-To: {\"endpoints\":[{\"url\":\"https:\\\/\\\/a.nel.cloudflare.com\\\/report\\\/v3?s=oLJzb%2FYcGxwMRI%2F2J1F9asuvgEL6slu8eTV02%2BeEux2esdBdiyI4cH1GYH%2BChh8EUZpswd61np0xuZznTeNGgGIqpoOyTfb0RNa69GHa16s5iFcb1QpUj6lkYg%3D%3D\"}],\"group\":\"cf-nel\",\"max_age\":604800}\n1 < NEL: {\"success_fraction\":0,\"report_to\":\"cf-nel\",\"max_age\":604800}\n1 < Vary: Accept-Encoding\n1 < Server: cloudflare\n1 < CF-RAY: 82348cfdff058992-SIN\n{}\n\n"},{"result":{"nanos":26300,"millis":0.0263,"status":"passed"},"step":{"line":29,"prefix":"Then","index":3,"text":"status 404"}}],"executorName":"main","line":25,"name":"Get user details-user not found","description":"","durationMillis":647.6472,"startTime":1699517129182,"failed":false,"refId":"[4:25]","endTime":1699517129831,"exampleIndex":-1},{"sectionIndex":4,"stepResults":[{"result":{"nanos":305500,"millis":0.3055,"status":"passed"},"step":{"line":32,"prefix":"Given","index":0,"text":"url 'https:\/\/reqres.in\/api\/unknown\/'"}},{"result":{"nanos":1162700,"millis":1.1627,"status":"passed"},"step":{"line":33,"prefix":"And","index":1,"text":"path '2'"}},{"result":{"nanos":253382900,"millis":253.3829,"status":"passed"},"step":{"line":34,"prefix":"When","index":2,"text":"method GET"},"stepLog":"13:35:29.845 request:\n1 > GET https:\/\/reqres.in\/api\/unknown\/2\n1 > Host: reqres.in\n1 > Connection: Keep-Alive\n1 > User-Agent: Apache-HttpClient\/4.5.13 (Java\/17.0.7)\n1 > Accept-Encoding: gzip,deflate\n\n\n13:35:30.094 response time in milliseconds: 249\n1 < 200\n1 < Date: Thu, 09 Nov 2023 08:05:27 GMT\n1 < Content-Type: application\/json; charset=utf-8\n1 < Transfer-Encoding: chunked\n1 < Connection: keep-alive\n1 < Report-To: {\"group\":\"heroku-nel\",\"max_age\":3600,\"endpoints\":[{\"url\":\"https:\/\/nel.heroku.com\/reports?ts=1698831816&sid=c4c9725f-1ab0-44d8-820f-430df2718e11&s=%2BnSQIskfS9no%2FHuC5oOPIo1DmsUlBqh2ispfW6mhB%2FM%3D\"}]}\n1 < Reporting-Endpoints: heroku-nel=https:\/\/nel.heroku.com\/reports?ts=1698831816&sid=c4c9725f-1ab0-44d8-820f-430df2718e11&s=%2BnSQIskfS9no%2FHuC5oOPIo1DmsUlBqh2ispfW6mhB%2FM%3D\n1 < Nel: {\"report_to\":\"heroku-nel\",\"max_age\":3600,\"success_fraction\":0.005,\"failure_fraction\":0.05,\"response_headers\":[\"Via\"]}\n1 < X-Powered-By: Express\n1 < Access-Control-Allow-Origin: *\n1 < Etag: W\/\"e8-ov4wWh4\/OY1IMQMqWgskYtOFnVs\"\n1 < Via: 1.1 vegur\n1 < Cache-Control: max-age=14400\n1 < CF-Cache-Status: HIT\n1 < Age: 535\n1 < Vary: Accept-Encoding\n1 < Server: cloudflare\n1 < CF-RAY: 82348d01c9094cdd-SIN\n{\"data\":{\"id\":2,\"name\":\"fuchsia rose\",\"year\":2001,\"color\":\"#C74375\",\"pantone_value\":\"17-2031\"},\"support\":{\"url\":\"https:\/\/reqres.in\/#support-heading\",\"text\":\"To keep ReqRes free, contributions towards server costs are appreciated!\"}}\n\n"},{"result":{"nanos":15300,"millis":0.0153,"status":"passed"},"step":{"line":35,"prefix":"Then","index":3,"text":"status 200"}}],"executorName":"main","line":31,"name":"Get user print the response","description":"","durationMillis":254.8664,"startTime":1699517129840,"failed":false,"refId":"[5:31]","endTime":1699517130095,"exampleIndex":-1},{"sectionIndex":5,"stepResults":[{"result":{"nanos":278900,"millis":0.2789,"status":"passed"},"step":{"line":38,"prefix":"Given","index":0,"text":"url 'https:\/\/reqres.in\/api\/users\/2'"}},{"result":{"nanos":45720300,"millis":45.7203,"status":"passed"},"step":{"line":39,"prefix":"And","index":1,"text":"request {\"name\": \"Allen\"}"}},{"result":{"nanos":892943500,"millis":892.9435,"status":"passed"},"step":{"line":40,"prefix":"When","index":2,"text":"method PUT"},"stepLog":"13:35:30.411 request:\n1 > PUT https:\/\/reqres.in\/api\/users\/2\n1 > Content-Type: application\/json; charset=UTF-8\n1 > Content-Length: 16\n1 > Host: reqres.in\n1 > Connection: Keep-Alive\n1 > User-Agent: Apache-HttpClient\/4.5.13 (Java\/17.0.7)\n1 > Accept-Encoding: gzip,deflate\n{\"name\":\"Allen\"}\n\n13:35:31.044 response time in milliseconds: 631\n1 < 200\n1 < Date: Thu, 09 Nov 2023 08:05:28 GMT\n1 < Content-Type: application\/json; charset=utf-8\n1 < Transfer-Encoding: chunked\n1 < Connection: keep-alive\n1 < X-Powered-By: Express\n1 < Access-Control-Allow-Origin: *\n1 < Etag: W\/\"37-Mg1WReZ3FN+idZryeS+JWnZiRAU\"\n1 < Via: 1.1 vegur\n1 < CF-Cache-Status: DYNAMIC\n1 < Report-To: {\"endpoints\":[{\"url\":\"https:\\\/\\\/a.nel.cloudflare.com\\\/report\\\/v3?s=RyAgQAKHB8gr5SWFkLl%2B8V3ufyU0pubbwFXkpbMXd5gT%2F8pIw8OPvLpICHBQnT9kb5nasyMtHwrEBQHryQN9e5eMaPLyUWVI3kf0Mk1L7sn8IjjV3EsIVaspow%3D%3D\"}],\"group\":\"cf-nel\",\"max_age\":604800}\n1 < NEL: {\"success_fraction\":0,\"report_to\":\"cf-nel\",\"max_age\":604800}\n1 < Vary: Accept-Encoding\n1 < Server: cloudflare\n1 < CF-RAY: 82348d057d1d91b3-SIN\n{\"name\":\"Allen\",\"updatedAt\":\"2023-11-09T08:05:28.827Z\"}\n\n"},{"result":{"nanos":18100,"millis":0.0181,"status":"passed"},"step":{"line":41,"prefix":"Then","index":3,"text":"status 200"}},{"result":{"nanos":1735900,"errorMessage":"js failed:\n>>>>\n01: responce.data\n<<<<\norg.graalvm.polyglot.PolyglotException: ReferenceError: \"responce\" is not defined\n- <js>.:program(Unnamed:1)\n\nsrc\/test\/java\/api.feature:42","millis":1.7359,"status":"failed"},"step":{"line":42,"prefix":"And","index":4,"text":"match responce.data name == 'Allen'"},"stepLog":"13:35:31.047 src\/test\/java\/api.feature:42\nAnd match responce.data name == 'Allen'\njs failed:\n>>>>\n01: responce.data\n<<<<\norg.graalvm.polyglot.PolyglotException: ReferenceError: \"responce\" is not defined\n- <js>.:program(Unnamed:1)\n\nsrc\/test\/java\/api.feature:42\n"},{"result":{"nanos":0,"millis":0.0,"status":"skipped"},"step":{"line":44,"prefix":"*","index":5,"text":"print response"}}],"line":37,"description":"","durationMillis":940.6967,"failed":true,"error":"js failed:\n>>>>\n01: responce.data\n<<<<\norg.graalvm.polyglot.PolyglotException: ReferenceError: \"responce\" is not defined\n- <js>.:program(Unnamed:1)\n\nsrc\/test\/java\/api.feature:42","executorName":"main","name":"Update user details","startTime":1699517130105,"refId":"[6:37]","endTime":1699517131047,"exampleIndex":-1},{"sectionIndex":6,"stepResults":[{"result":{"nanos":676200,"millis":0.6762,"status":"passed"},"step":{"line":47,"prefix":"Given","index":0,"text":"url 'https:\/\/reqres.in\/api\/unknown\/'"}},{"result":{"nanos":1652400,"millis":1.6524,"status":"passed"},"step":{"line":48,"prefix":"And","index":1,"text":"path '1'"}},{"result":{"nanos":609579500,"millis":609.5795,"status":"passed"},"step":{"line":49,"prefix":"When","index":2,"text":"method GET"},"stepLog":"13:35:31.120 request:\n1 > GET https:\/\/reqres.in\/api\/unknown\/1\n1 > Host: reqres.in\n1 > Connection: Keep-Alive\n1 > User-Agent: Apache-HttpClient\/4.5.13 (Java\/17.0.7)\n1 > Accept-Encoding: gzip,deflate\n\n\n13:35:31.724 response time in milliseconds: 604\n1 < 200\n1 < Date: Thu, 09 Nov 2023 08:05:29 GMT\n1 < Content-Type: application\/json; charset=utf-8\n1 < Transfer-Encoding: chunked\n1 < Connection: keep-alive\n1 < Report-To: {\"group\":\"heroku-nel\",\"max_age\":3600,\"endpoints\":[{\"url\":\"https:\/\/nel.heroku.com\/reports?ts=1699459944&sid=c4c9725f-1ab0-44d8-820f-430df2718e11&s=dnN9xThnBOblhgMXN6oZZnsJtwttqiYuKcuz41bk5yw%3D\"}]}\n1 < Reporting-Endpoints: heroku-nel=https:\/\/nel.heroku.com\/reports?ts=1699459944&sid=c4c9725f-1ab0-44d8-820f-430df2718e11&s=dnN9xThnBOblhgMXN6oZZnsJtwttqiYuKcuz41bk5yw%3D\n1 < Nel: {\"report_to\":\"heroku-nel\",\"max_age\":3600,\"success_fraction\":0.005,\"failure_fraction\":0.05,\"response_headers\":[\"Via\"]}\n1 < X-Powered-By: Express\n1 < Access-Control-Allow-Origin: *\n1 < Etag: W\/\"e4-2W7ZNEqb4DWjJCUXzZoMFmGhgio\"\n1 < Via: 1.1 vegur\n1 < Cache-Control: max-age=14400\n1 < CF-Cache-Status: REVALIDATED\n1 < Vary: Accept-Encoding\n1 < Server: cloudflare\n1 < CF-RAY: 82348d09cc664bfe-SIN\n{\"data\":{\"id\":1,\"name\":\"cerulean\",\"year\":2000,\"color\":\"#98B2D1\",\"pantone_value\":\"15-4020\"},\"support\":{\"url\":\"https:\/\/reqres.in\/#support-heading\",\"text\":\"To keep ReqRes free, contributions towards server costs are appreciated!\"}}\n\n"},{"result":{"nanos":18300,"millis":0.0183,"status":"passed"},"step":{"line":50,"prefix":"Then","index":3,"text":"status 200"}},{"result":{"nanos":157171400,"millis":157.1714,"status":"passed"},"step":{"line":51,"prefix":"*","index":4,"text":"print response"},"stepLog":"13:35:31.880 [print] {\n  \"data\": {\n    \"id\": 1,\n    \"name\": \"cerulean\",\n    \"year\": 2000,\n    \"color\": \"#98B2D1\",\n    \"pantone_value\": \"15-4020\"\n  },\n  \"support\": {\n    \"url\": \"https:\/\/reqres.in\/#support-heading\",\n    \"text\": \"To keep ReqRes free, contributions towards server costs are appreciated!\"\n  }\n}\n \n"},{"result":{"nanos":32059100,"millis":32.0591,"status":"passed"},"step":{"line":52,"prefix":"*","index":5,"text":"def jsonResponse = response"}},{"result":{"nanos":1159800,"millis":1.1598,"status":"passed"},"step":{"line":53,"prefix":"*","index":6,"text":"def actualName = jsonResponse.data.name"}},{"result":{"nanos":4418700,"millis":4.4187,"status":"passed"},"step":{"line":54,"prefix":"*","index":7,"text":"print actualName"},"stepLog":"13:35:31.919 [print] cerulean \n"}],"executorName":"main","line":46,"name":"Get user details and print the name using json","description":"","durationMillis":806.7354,"startTime":1699517131112,"failed":false,"refId":"[7:46]","endTime":1699517131921,"exampleIndex":-1},{"sectionIndex":7,"stepResults":[{"result":{"nanos":879900,"millis":0.8799,"status":"passed"},"step":{"line":57,"prefix":"Given","index":0,"text":"url 'https:\/\/reqres.in\/api\/users\/2'"}},{"result":{"nanos":257162300,"millis":257.1623,"status":"passed"},"step":{"line":58,"prefix":"When","index":1,"text":"method GET"},"stepLog":"13:35:31.936 request:\n1 > GET https:\/\/reqres.in\/api\/users\/2\n1 > Host: reqres.in\n1 > Connection: Keep-Alive\n1 > User-Agent: Apache-HttpClient\/4.5.13 (Java\/17.0.7)\n1 > Accept-Encoding: gzip,deflate\n\n\n13:35:32.190 response time in milliseconds: 253\n1 < 200\n1 < Date: Thu, 09 Nov 2023 08:05:30 GMT\n1 < Content-Type: application\/json; charset=utf-8\n1 < Transfer-Encoding: chunked\n1 < Connection: keep-alive\n1 < Report-To: {\"group\":\"heroku-nel\",\"max_age\":3600,\"endpoints\":[{\"url\":\"https:\/\/nel.heroku.com\/reports?ts=1699465080&sid=c4c9725f-1ab0-44d8-820f-430df2718e11&s=xdIsyGiauupgaWLGgxDFWupAsSKaYpJa05dGhFObqHk%3D\"}]}\n1 < Reporting-Endpoints: heroku-nel=https:\/\/nel.heroku.com\/reports?ts=1699465080&sid=c4c9725f-1ab0-44d8-820f-430df2718e11&s=xdIsyGiauupgaWLGgxDFWupAsSKaYpJa05dGhFObqHk%3D\n1 < Nel: {\"report_to\":\"heroku-nel\",\"max_age\":3600,\"success_fraction\":0.005,\"failure_fraction\":0.05,\"response_headers\":[\"Via\"]}\n1 < X-Powered-By: Express\n1 < Access-Control-Allow-Origin: *\n1 < Etag: W\/\"118-pbdwwFo9SKNhD3Lx5iHJyngpq00\"\n1 < Via: 1.1 vegur\n1 < Cache-Control: max-age=14400\n1 < CF-Cache-Status: HIT\n1 < Age: 1247\n1 < Vary: Accept-Encoding\n1 < Server: cloudflare\n1 < CF-RAY: 82348d0ec92d4dc8-SIN\n{\"data\":{\"id\":2,\"email\":\"janet.weaver@reqres.in\",\"first_name\":\"Janet\",\"last_name\":\"Weaver\",\"avatar\":\"https:\/\/reqres.in\/img\/faces\/2-image.jpg\"},\"support\":{\"url\":\"https:\/\/reqres.in\/#support-heading\",\"text\":\"To keep ReqRes free, contributions towards server costs are appreciated!\"}}\n\n"},{"result":{"nanos":15600,"millis":0.0156,"status":"passed"},"step":{"line":59,"prefix":"Then","index":2,"text":"status 200"}},{"result":{"nanos":1195700,"millis":1.1957,"status":"passed"},"step":{"line":60,"prefix":"*","index":3,"text":"print response"},"stepLog":"13:35:32.192 [print] {\n  \"data\": {\n    \"id\": 2,\n    \"email\": \"janet.weaver@reqres.in\",\n    \"first_name\": \"Janet\",\n    \"last_name\": \"Weaver\",\n    \"avatar\": \"https:\/\/reqres.in\/img\/faces\/2-image.jpg\"\n  },\n  \"support\": {\n    \"url\": \"https:\/\/reqres.in\/#support-heading\",\n    \"text\": \"To keep ReqRes free, contributions towards server costs are appreciated!\"\n  }\n}\n \n"},{"result":{"nanos":551800,"millis":0.5518,"status":"passed"},"step":{"line":61,"prefix":"*","index":4,"text":"def jsonResponse = response"}},{"result":{"nanos":1796800,"millis":1.7968,"status":"passed"},"step":{"line":62,"prefix":"*","index":5,"text":"def email = jsonResponse.data.email"}},{"result":{"nanos":1798100,"millis":1.7981,"status":"passed"},"step":{"line":63,"prefix":"*","index":6,"text":"print email"},"stepLog":"13:35:32.196 [print] janet.weaver@reqres.in \n"},{"result":{"nanos":21418400,"millis":21.4184,"status":"passed"},"step":{"line":64,"prefix":"*","index":7,"text":"match email == 'janet.weaver@reqres.in'"}}],"executorName":"main","line":56,"name":"Get user details and verify user email using json path","description":"","durationMillis":284.8186,"startTime":1699517131932,"failed":false,"refId":"[8:56]","endTime":1699517132218,"exampleIndex":-1},{"sectionIndex":8,"stepResults":[{"result":{"nanos":413400,"millis":0.4134,"status":"passed"},"step":{"line":67,"prefix":"Given","index":0,"text":"url 'https:\/\/reqres.in\/api\/users\/2'"}},{"result":{"nanos":119737300,"millis":119.7373,"status":"passed"},"step":{"line":68,"prefix":"When","index":1,"text":"method GET"},"stepLog":"13:35:32.224 request:\n1 > GET https:\/\/reqres.in\/api\/users\/2\n1 > Host: reqres.in\n1 > Connection: Keep-Alive\n1 > User-Agent: Apache-HttpClient\/4.5.13 (Java\/17.0.7)\n1 > Accept-Encoding: gzip,deflate\n\n\n13:35:32.341 response time in milliseconds: 116\n1 < 200\n1 < Date: Thu, 09 Nov 2023 08:05:30 GMT\n1 < Content-Type: application\/json; charset=utf-8\n1 < Transfer-Encoding: chunked\n1 < Connection: keep-alive\n1 < Report-To: {\"group\":\"heroku-nel\",\"max_age\":3600,\"endpoints\":[{\"url\":\"https:\/\/nel.heroku.com\/reports?ts=1699513005&sid=c4c9725f-1ab0-44d8-820f-430df2718e11&s=HJEiCZcZugFZjcIuu5H7ylySJfHXgdDkC2ool7RFVAY%3D\"}]}\n1 < Reporting-Endpoints: heroku-nel=https:\/\/nel.heroku.com\/reports?ts=1699513005&sid=c4c9725f-1ab0-44d8-820f-430df2718e11&s=HJEiCZcZugFZjcIuu5H7ylySJfHXgdDkC2ool7RFVAY%3D\n1 < Nel: {\"report_to\":\"heroku-nel\",\"max_age\":3600,\"success_fraction\":0.005,\"failure_fraction\":0.05,\"response_headers\":[\"Via\"]}\n1 < X-Powered-By: Express\n1 < Access-Control-Allow-Origin: *\n1 < Etag: W\/\"118-pbdwwFo9SKNhD3Lx5iHJyngpq00\"\n1 < Via: 1.1 vegur\n1 < Cache-Control: max-age=14400\n1 < CF-Cache-Status: HIT\n1 < Age: 4125\n1 < Vary: Accept-Encoding\n1 < Server: cloudflare\n1 < CF-RAY: 82348d0fe8ac2e1d-BOM\n{\"data\":{\"id\":2,\"email\":\"janet.weaver@reqres.in\",\"first_name\":\"Janet\",\"last_name\":\"Weaver\",\"avatar\":\"https:\/\/reqres.in\/img\/faces\/2-image.jpg\"},\"support\":{\"url\":\"https:\/\/reqres.in\/#support-heading\",\"text\":\"To keep ReqRes free, contributions towards server costs are appreciated!\"}}\n\n"},{"result":{"nanos":730500,"millis":0.7305,"status":"passed"},"step":{"line":69,"prefix":"*","index":2,"text":"print response"},"stepLog":"13:35:32.343 [print] {\n  \"data\": {\n    \"id\": 2,\n    \"email\": \"janet.weaver@reqres.in\",\n    \"first_name\": \"Janet\",\n    \"last_name\": \"Weaver\",\n    \"avatar\": \"https:\/\/reqres.in\/img\/faces\/2-image.jpg\"\n  },\n  \"support\": {\n    \"url\": \"https:\/\/reqres.in\/#support-heading\",\n    \"text\": \"To keep ReqRes free, contributions towards server costs are appreciated!\"\n  }\n}\n \n"},{"result":{"nanos":352800,"millis":0.3528,"status":"passed"},"step":{"line":70,"prefix":"*","index":3,"text":"def jsonResponse = response"}},{"result":{"nanos":3706700,"millis":3.7067,"status":"passed"},"step":{"line":71,"prefix":"*","index":4,"text":"def name = jsonResponse.data.first_name"}},{"result":{"nanos":1444400,"millis":1.4444,"status":"passed"},"step":{"line":72,"prefix":"*","index":5,"text":"print name"},"stepLog":"13:35:32.349 [print] Janet \n"},{"result":{"nanos":3126700,"errorMessage":"match failed: EQUALS\n  $ | not equal (STRING:STRING)\n  'Janet'\n  'Ishwar'\n\nsrc\/test\/java\/api.feature:73","millis":3.1267,"status":"failed"},"step":{"line":73,"prefix":"*","index":6,"text":"match name == 'Ishwar'"},"stepLog":"13:35:32.352 src\/test\/java\/api.feature:73\n* match name == 'Ishwar'\nmatch failed: EQUALS\n  $ | not equal (STRING:STRING)\n  'Janet'\n  'Ishwar'\n\nsrc\/test\/java\/api.feature:73\n"},{"result":{"nanos":0,"millis":0.0,"status":"skipped"},"step":{"line":74,"prefix":"Then","index":7,"text":"status 203"}}],"line":66,"description":"","durationMillis":129.5118,"failed":true,"error":"match failed: EQUALS\n  $ | not equal (STRING:STRING)\n  'Janet'\n  'Ishwar'\n\nsrc\/test\/java\/api.feature:73","executorName":"main","name":"Get user details and verify.If response is invalid get-Accepted is not equal","startTime":1699517132222,"refId":"[9:66]","endTime":1699517132352,"exampleIndex":-1}],"callDepth":0,"name":"Testing Reqres Endpoints","description":"","resultDate":"2023-11-09 01:35:32 pm","durationMillis":6235.1878,"passedCount":5}