{"failedCount":3,"prefixedPath":"src\/test\/java\/api.feature","packageQualifiedName":"src.test.java.api","loopIndex":-1,"relativePath":"src\/test\/java\/api.feature","scenarioResults":[{"sectionIndex":0,"stepResults":[{"result":{"nanos":167884800,"millis":167.8848,"status":"passed"},"step":{"line":5,"prefix":"Given","index":0,"text":"url 'https:\/\/reqres.in\/api\/users'"}},{"result":{"nanos":2153392900,"millis":2153.3929,"status":"passed"},"step":{"line":6,"prefix":"When","index":1,"text":"method GET"},"stepLog":"14:08:01.016 request:\n1 > GET https:\/\/reqres.in\/api\/users\n1 > Host: reqres.in\n1 > Connection: Keep-Alive\n1 > User-Agent: Apache-HttpClient\/4.5.13 (Java\/17.0.7)\n1 > Accept-Encoding: gzip,deflate\n\n\n14:08:01.795 response time in milliseconds: 764\n1 < 200\n1 < Date: Thu, 09 Nov 2023 08:37:59 GMT\n1 < Content-Type: application\/json; charset=utf-8\n1 < Transfer-Encoding: chunked\n1 < Connection: keep-alive\n1 < Report-To: {\"group\":\"heroku-nel\",\"max_age\":3600,\"endpoints\":[{\"url\":\"https:\/\/nel.heroku.com\/reports?ts=1699402714&sid=c4c9725f-1ab0-44d8-820f-430df2718e11&s=TuveC2zskDKLDkLiAAMlKkT4IY8F%2B6BpeC3SjVj8mLM%3D\"}]}\n1 < Reporting-Endpoints: heroku-nel=https:\/\/nel.heroku.com\/reports?ts=1699402714&sid=c4c9725f-1ab0-44d8-820f-430df2718e11&s=TuveC2zskDKLDkLiAAMlKkT4IY8F%2B6BpeC3SjVj8mLM%3D\n1 < Nel: {\"report_to\":\"heroku-nel\",\"max_age\":3600,\"success_fraction\":0.005,\"failure_fraction\":0.05,\"response_headers\":[\"Via\"]}\n1 < X-Powered-By: Express\n1 < Access-Control-Allow-Origin: *\n1 < Etag: W\/\"3e4-2RLXvr5wTg9YQ6aH95CkYoFNuO8\"\n1 < Via: 1.1 vegur\n1 < Cache-Control: max-age=14400\n1 < CF-Cache-Status: HIT\n1 < Age: 4060\n1 < Vary: Accept-Encoding\n1 < Server: cloudflare\n1 < CF-RAY: 8234bca7c9e13e52-BOM\n{\"page\":1,\"per_page\":6,\"total\":12,\"total_pages\":2,\"data\":[{\"id\":1,\"email\":\"george.bluth@reqres.in\",\"first_name\":\"George\",\"last_name\":\"Bluth\",\"avatar\":\"https:\/\/reqres.in\/img\/faces\/1-image.jpg\"},{\"id\":2,\"email\":\"janet.weaver@reqres.in\",\"first_name\":\"Janet\",\"last_name\":\"Weaver\",\"avatar\":\"https:\/\/reqres.in\/img\/faces\/2-image.jpg\"},{\"id\":3,\"email\":\"emma.wong@reqres.in\",\"first_name\":\"Emma\",\"last_name\":\"Wong\",\"avatar\":\"https:\/\/reqres.in\/img\/faces\/3-image.jpg\"},{\"id\":4,\"email\":\"eve.holt@reqres.in\",\"first_name\":\"Eve\",\"last_name\":\"Holt\",\"avatar\":\"https:\/\/reqres.in\/img\/faces\/4-image.jpg\"},{\"id\":5,\"email\":\"charles.morris@reqres.in\",\"first_name\":\"Charles\",\"last_name\":\"Morris\",\"avatar\":\"https:\/\/reqres.in\/img\/faces\/5-image.jpg\"},{\"id\":6,\"email\":\"tracey.ramos@reqres.in\",\"first_name\":\"Tracey\",\"last_name\":\"Ramos\",\"avatar\":\"https:\/\/reqres.in\/img\/faces\/6-image.jpg\"}],\"support\":{\"url\":\"https:\/\/reqres.in\/#support-heading\",\"text\":\"To keep ReqRes free, contributions towards server costs are appreciated!\"}}\n\n"},{"result":{"nanos":38700,"millis":0.0387,"status":"passed"},"step":{"line":7,"prefix":"Then","index":2,"text":"status 200"}}],"executorName":"main","line":4,"name":"Get list of users","description":"","durationMillis":2321.3164,"startTime":1699519079609,"failed":false,"refId":"[1:4]","endTime":1699519081963,"exampleIndex":-1},{"sectionIndex":1,"stepResults":[{"result":{"nanos":767000,"millis":0.767,"status":"passed"},"step":{"line":10,"prefix":"Given","index":0,"text":"url 'https:\/\/reqres.in\/api\/users'"}},{"result":{"nanos":42454601,"errorMessage":"js failed:\n>>>>\n01: \"name\": \"morpheus\", \"job\": \"engineer\"}\n<<<<\norg.graalvm.polyglot.PolyglotException: SyntaxError: Unnamed:1:6 Expected ; but found :\r\n\"name\": \"morpheus\", \"job\": \"engineer\"}\r\n      ^\n\n- org.graalvm.polyglot.Context.eval(Context.java:425)\n- com.intuit.karate.graal.JsEngine.evalForValue(JsEngine.java:139)\n- com.intuit.karate.graal.JsEngine.eval(JsEngine.java:135)\n- com.intuit.karate.core.ScenarioEngine.evalJs(ScenarioEngine.java:1190)\n- com.intuit.karate.core.ScenarioEngine.evalKarateExpression(ScenarioEngine.java:2143)\n- com.intuit.karate.core.ScenarioEngine.evalKarateExpression(ScenarioEngine.java:2062)\n- com.intuit.karate.core.ScenarioEngine.request(ScenarioEngine.java:533)\n\nsrc\/test\/java\/api.feature:11","millis":42.454601,"status":"failed"},"step":{"line":11,"prefix":"And","index":1,"text":"request \"name\": \"morpheus\", \"job\": \"engineer\"}"},"stepLog":"14:08:02.018 src\/test\/java\/api.feature:11\nAnd request \"name\": \"morpheus\", \"job\": \"engineer\"}\njs failed:\n>>>>\n01: \"name\": \"morpheus\", \"job\": \"engineer\"}\n<<<<\norg.graalvm.polyglot.PolyglotException: SyntaxError: Unnamed:1:6 Expected ; but found :\r\n\"name\": \"morpheus\", \"job\": \"engineer\"}\r\n      ^\n\n- org.graalvm.polyglot.Context.eval(Context.java:425)\n- com.intuit.karate.graal.JsEngine.evalForValue(JsEngine.java:139)\n- com.intuit.karate.graal.JsEngine.eval(JsEngine.java:135)\n- com.intuit.karate.core.ScenarioEngine.evalJs(ScenarioEngine.java:1190)\n- com.intuit.karate.core.ScenarioEngine.evalKarateExpression(ScenarioEngine.java:2143)\n- com.intuit.karate.core.ScenarioEngine.evalKarateExpression(ScenarioEngine.java:2062)\n- com.intuit.karate.core.ScenarioEngine.request(ScenarioEngine.java:533)\n\nsrc\/test\/java\/api.feature:11\n"},{"result":{"nanos":0,"millis":0.0,"status":"skipped"},"step":{"line":12,"prefix":"When","index":2,"text":"method POST"}},{"result":{"nanos":0,"millis":0.0,"status":"skipped"},"step":{"line":13,"prefix":"Then","index":3,"text":"status 201"}},{"result":{"nanos":0,"millis":0.0,"status":"skipped"},"step":{"line":14,"prefix":"And","index":4,"text":"match responce.data.name == 'morpheus'"}},{"result":{"nanos":0,"millis":0.0,"status":"skipped"},"step":{"line":15,"prefix":"And","index":5,"text":"match responce.data.job == 'engineer'"}}],"line":9,"description":"","durationMillis":43.221601,"failed":true,"error":"js failed:\n>>>>\n01: \"name\": \"morpheus\", \"job\": \"engineer\"}\n<<<<\norg.graalvm.polyglot.PolyglotException: SyntaxError: Unnamed:1:6 Expected ; but found :\r\n\"name\": \"morpheus\", \"job\": \"engineer\"}\r\n      ^\n\n- org.graalvm.polyglot.Context.eval(Context.java:425)\n- com.intuit.karate.graal.JsEngine.evalForValue(JsEngine.java:139)\n- com.intuit.karate.graal.JsEngine.eval(JsEngine.java:135)\n- com.intuit.karate.core.ScenarioEngine.evalJs(ScenarioEngine.java:1190)\n- com.intuit.karate.core.ScenarioEngine.evalKarateExpression(ScenarioEngine.java:2143)\n- com.intuit.karate.core.ScenarioEngine.evalKarateExpression(ScenarioEngine.java:2062)\n- com.intuit.karate.core.ScenarioEngine.request(ScenarioEngine.java:533)\n\nsrc\/test\/java\/api.feature:11","executorName":"main","name":"Create a new user","startTime":1699519081973,"refId":"[2:9]","endTime":1699519082018,"exampleIndex":-1},{"sectionIndex":2,"stepResults":[{"result":{"nanos":1243900,"millis":1.2439,"status":"passed"},"step":{"line":19,"prefix":"Given","index":0,"text":"url 'https:\/\/reqres.in\/api\/users\/2'"}},{"result":{"nanos":231970000,"millis":231.97,"status":"passed"},"step":{"line":20,"prefix":"When","index":1,"text":"method GET"},"stepLog":"14:08:02.033 request:\n1 > GET https:\/\/reqres.in\/api\/users\/2\n1 > Host: reqres.in\n1 > Connection: Keep-Alive\n1 > User-Agent: Apache-HttpClient\/4.5.13 (Java\/17.0.7)\n1 > Accept-Encoding: gzip,deflate\n\n\n14:08:02.260 response time in milliseconds: 227\n1 < 200\n1 < Date: Thu, 09 Nov 2023 08:38:00 GMT\n1 < Content-Type: application\/json; charset=utf-8\n1 < Transfer-Encoding: chunked\n1 < Connection: keep-alive\n1 < Report-To: {\"group\":\"heroku-nel\",\"max_age\":3600,\"endpoints\":[{\"url\":\"https:\/\/nel.heroku.com\/reports?ts=1699465080&sid=c4c9725f-1ab0-44d8-820f-430df2718e11&s=xdIsyGiauupgaWLGgxDFWupAsSKaYpJa05dGhFObqHk%3D\"}]}\n1 < Reporting-Endpoints: heroku-nel=https:\/\/nel.heroku.com\/reports?ts=1699465080&sid=c4c9725f-1ab0-44d8-820f-430df2718e11&s=xdIsyGiauupgaWLGgxDFWupAsSKaYpJa05dGhFObqHk%3D\n1 < Nel: {\"report_to\":\"heroku-nel\",\"max_age\":3600,\"success_fraction\":0.005,\"failure_fraction\":0.05,\"response_headers\":[\"Via\"]}\n1 < X-Powered-By: Express\n1 < Access-Control-Allow-Origin: *\n1 < Etag: W\/\"118-pbdwwFo9SKNhD3Lx5iHJyngpq00\"\n1 < Via: 1.1 vegur\n1 < Cache-Control: max-age=14400\n1 < CF-Cache-Status: HIT\n1 < Age: 3197\n1 < Vary: Accept-Encoding\n1 < Server: cloudflare\n1 < CF-RAY: 8234bcaaec7f4d21-SIN\n{\"data\":{\"id\":2,\"email\":\"janet.weaver@reqres.in\",\"first_name\":\"Janet\",\"last_name\":\"Weaver\",\"avatar\":\"https:\/\/reqres.in\/img\/faces\/2-image.jpg\"},\"support\":{\"url\":\"https:\/\/reqres.in\/#support-heading\",\"text\":\"To keep ReqRes free, contributions towards server costs are appreciated!\"}}\n\n"},{"result":{"nanos":20601,"millis":0.020601,"status":"passed"},"step":{"line":21,"prefix":"Then","index":2,"text":"status 200"}}],"executorName":"main","line":18,"name":"Get single user details","description":"","durationMillis":233.234501,"startTime":1699519082029,"failed":false,"refId":"[3:18]","endTime":1699519082263,"exampleIndex":-1},{"sectionIndex":3,"stepResults":[{"result":{"nanos":1889001,"millis":1.889001,"status":"passed"},"step":{"line":26,"prefix":"Given","index":0,"text":"url 'https:\/\/reqres.in\/api\/unknown\/'"}},{"result":{"nanos":1939600,"millis":1.9396,"status":"passed"},"step":{"line":27,"prefix":"And","index":1,"text":"path '30'"}},{"result":{"nanos":584624700,"millis":584.6247,"status":"passed"},"step":{"line":28,"prefix":"When","index":2,"text":"method GET"},"stepLog":"14:08:02.276 request:\n1 > GET https:\/\/reqres.in\/api\/unknown\/30\n1 > Host: reqres.in\n1 > Connection: Keep-Alive\n1 > User-Agent: Apache-HttpClient\/4.5.13 (Java\/17.0.7)\n1 > Accept-Encoding: gzip,deflate\n\n\n14:08:02.858 response time in milliseconds: 581\n1 < 404\n1 < Date: Thu, 09 Nov 2023 08:38:00 GMT\n1 < Content-Type: application\/json; charset=utf-8\n1 < Content-Length: 2\n1 < Connection: keep-alive\n1 < X-Powered-By: Express\n1 < Access-Control-Allow-Origin: *\n1 < Etag: W\/\"2-vyGp6PvFo4RvsFtPoIWeCReyIC8\"\n1 < Via: 1.1 vegur\n1 < Cache-Control: max-age=14400\n1 < CF-Cache-Status: EXPIRED\n1 < Report-To: {\"endpoints\":[{\"url\":\"https:\\\/\\\/a.nel.cloudflare.com\\\/report\\\/v3?s=8TQKFkoICrGZL4A%2FBg4aZvpuOiQnY0klOJCywg5DNwV6TqkvkMSJaL1c6GTqnGMtMic1i7GaDZrLGV6n0Ud35J%2BdcURDXnEUJ03Zs2d6syqDPmiSgQx808dJkQ%3D%3D\"}],\"group\":\"cf-nel\",\"max_age\":604800}\n1 < NEL: {\"success_fraction\":0,\"report_to\":\"cf-nel\",\"max_age\":604800}\n1 < Vary: Accept-Encoding\n1 < Server: cloudflare\n1 < CF-RAY: 8234bcac6c0591c6-SIN\n{}\n\n"},{"result":{"nanos":23600,"millis":0.0236,"status":"passed"},"step":{"line":29,"prefix":"Then","index":3,"text":"status 404"}}],"executorName":"main","line":25,"name":"Get user details-user not found","description":"","durationMillis":588.476901,"startTime":1699519082270,"failed":false,"refId":"[4:25]","endTime":1699519082860,"exampleIndex":-1},{"sectionIndex":4,"stepResults":[{"result":{"nanos":303100,"millis":0.3031,"status":"passed"},"step":{"line":32,"prefix":"Given","index":0,"text":"url 'https:\/\/reqres.in\/api\/unknown\/'"}},{"result":{"nanos":588600,"millis":0.5886,"status":"passed"},"step":{"line":33,"prefix":"And","index":1,"text":"path '2'"}},{"result":{"nanos":169081201,"millis":169.081201,"status":"passed"},"step":{"line":34,"prefix":"When","index":2,"text":"method GET"},"stepLog":"14:08:02.868 request:\n1 > GET https:\/\/reqres.in\/api\/unknown\/2\n1 > Host: reqres.in\n1 > Connection: Keep-Alive\n1 > User-Agent: Apache-HttpClient\/4.5.13 (Java\/17.0.7)\n1 > Accept-Encoding: gzip,deflate\n\n\n14:08:03.034 response time in milliseconds: 166\n1 < 200\n1 < Date: Thu, 09 Nov 2023 08:38:00 GMT\n1 < Content-Type: application\/json; charset=utf-8\n1 < Transfer-Encoding: chunked\n1 < Connection: keep-alive\n1 < Report-To: {\"group\":\"heroku-nel\",\"max_age\":3600,\"endpoints\":[{\"url\":\"https:\/\/nel.heroku.com\/reports?ts=1698651436&sid=c4c9725f-1ab0-44d8-820f-430df2718e11&s=zVitSvNO6OyK2YLeaJI6eRCtVr91a%2BDwtiGWUdTohRs%3D\"}]}\n1 < Reporting-Endpoints: heroku-nel=https:\/\/nel.heroku.com\/reports?ts=1698651436&sid=c4c9725f-1ab0-44d8-820f-430df2718e11&s=zVitSvNO6OyK2YLeaJI6eRCtVr91a%2BDwtiGWUdTohRs%3D\n1 < Nel: {\"report_to\":\"heroku-nel\",\"max_age\":3600,\"success_fraction\":0.005,\"failure_fraction\":0.05,\"response_headers\":[\"Via\"]}\n1 < X-Powered-By: Express\n1 < Access-Control-Allow-Origin: *\n1 < Etag: W\/\"e8-ov4wWh4\/OY1IMQMqWgskYtOFnVs\"\n1 < Via: 1.1 vegur\n1 < Cache-Control: max-age=14400\n1 < CF-Cache-Status: HIT\n1 < Age: 279\n1 < Vary: Accept-Encoding\n1 < Server: cloudflare\n1 < CF-RAY: 8234bcafdede41a5-BOM\n{\"data\":{\"id\":2,\"name\":\"fuchsia rose\",\"year\":2001,\"color\":\"#C74375\",\"pantone_value\":\"17-2031\"},\"support\":{\"url\":\"https:\/\/reqres.in\/#support-heading\",\"text\":\"To keep ReqRes free, contributions towards server costs are appreciated!\"}}\n\n"},{"result":{"nanos":18499,"millis":0.018499,"status":"passed"},"step":{"line":35,"prefix":"Then","index":3,"text":"status 200"}}],"executorName":"main","line":31,"name":"Get user print the response","description":"","durationMillis":169.9914,"startTime":1699519082864,"failed":false,"refId":"[5:31]","endTime":1699519083035,"exampleIndex":-1},{"sectionIndex":5,"stepResults":[{"result":{"nanos":262500,"millis":0.2625,"status":"passed"},"step":{"line":38,"prefix":"Given","index":0,"text":"url 'https:\/\/reqres.in\/api\/users\/2'"}},{"result":{"nanos":64219701,"millis":64.219701,"status":"passed"},"step":{"line":39,"prefix":"And","index":1,"text":"request {\"name\": \"Allen\"}"}},{"result":{"nanos":761960300,"millis":761.9603,"status":"passed"},"step":{"line":40,"prefix":"When","index":2,"text":"method PUT"},"stepLog":"14:08:03.283 request:\n1 > PUT https:\/\/reqres.in\/api\/users\/2\n1 > Content-Type: application\/json; charset=UTF-8\n1 > Content-Length: 16\n1 > Host: reqres.in\n1 > Connection: Keep-Alive\n1 > User-Agent: Apache-HttpClient\/4.5.13 (Java\/17.0.7)\n1 > Accept-Encoding: gzip,deflate\n{\"name\":\"Allen\"}\n\n14:08:03.868 response time in milliseconds: 585\n1 < 200\n1 < Date: Thu, 09 Nov 2023 08:38:01 GMT\n1 < Content-Type: application\/json; charset=utf-8\n1 < Transfer-Encoding: chunked\n1 < Connection: keep-alive\n1 < X-Powered-By: Express\n1 < Access-Control-Allow-Origin: *\n1 < Etag: W\/\"37-StgIustQQuVd\/hcKzxSKiLVd5Ic\"\n1 < Via: 1.1 vegur\n1 < CF-Cache-Status: DYNAMIC\n1 < Report-To: {\"endpoints\":[{\"url\":\"https:\\\/\\\/a.nel.cloudflare.com\\\/report\\\/v3?s=fuPU9VqCMPvqcRcKsUpMssBh9RRhlT64s9PwRcHzrvdKeOxIXBD5CgjvrIfPp5PrPwPN9HdZ%2BlqR8UOL0yEObKpKCZR6jIp%2BGmRrANHVNmOQo%2FWPvKp30w2KMw%3D%3D\"}],\"group\":\"cf-nel\",\"max_age\":604800}\n1 < NEL: {\"success_fraction\":0,\"report_to\":\"cf-nel\",\"max_age\":604800}\n1 < Vary: Accept-Encoding\n1 < Server: cloudflare\n1 < CF-RAY: 8234bcb2a8394bce-SIN\n{\"name\":\"Allen\",\"updatedAt\":\"2023-11-09T08:38:01.663Z\"}\n\n"},{"result":{"nanos":19099,"millis":0.019099,"status":"passed"},"step":{"line":41,"prefix":"Then","index":3,"text":"status 200"}},{"result":{"nanos":64167100,"errorMessage":"js failed:\n>>>>\n01: karate.log('[print]',responce)\n<<<<\norg.graalvm.polyglot.PolyglotException: ReferenceError: \"responce\" is not defined\n- <js>.:program(Unnamed:1)\n\nsrc\/test\/java\/api.feature:42","millis":64.1671,"status":"failed"},"step":{"line":42,"prefix":"*","index":4,"text":"print responce"},"stepLog":"14:08:03.934 src\/test\/java\/api.feature:42\n* print responce\njs failed:\n>>>>\n01: karate.log('[print]',responce)\n<<<<\norg.graalvm.polyglot.PolyglotException: ReferenceError: \"responce\" is not defined\n- <js>.:program(Unnamed:1)\n\nsrc\/test\/java\/api.feature:42\n"},{"result":{"nanos":0,"millis":0.0,"status":"skipped"},"step":{"line":43,"prefix":"*","index":5,"text":"def name = responce.data.name"}},{"result":{"nanos":0,"millis":0.0,"status":"skipped"},"step":{"line":44,"prefix":"*","index":6,"text":"print name"}}],"line":37,"description":"","durationMillis":890.6287,"failed":true,"error":"js failed:\n>>>>\n01: karate.log('[print]',responce)\n<<<<\norg.graalvm.polyglot.PolyglotException: ReferenceError: \"responce\" is not defined\n- <js>.:program(Unnamed:1)\n\nsrc\/test\/java\/api.feature:42","executorName":"main","name":"Update user details","startTime":1699519083043,"refId":"[6:37]","endTime":1699519083934,"exampleIndex":-1},{"sectionIndex":6,"stepResults":[{"result":{"nanos":390000,"millis":0.39,"status":"passed"},"step":{"line":47,"prefix":"Given","index":0,"text":"url 'https:\/\/reqres.in\/api\/unknown\/'"}},{"result":{"nanos":688400,"millis":0.6884,"status":"passed"},"step":{"line":48,"prefix":"And","index":1,"text":"path '1'"}},{"result":{"nanos":461418101,"millis":461.418101,"status":"passed"},"step":{"line":49,"prefix":"When","index":2,"text":"method GET"},"stepLog":"14:08:03.947 request:\n1 > GET https:\/\/reqres.in\/api\/unknown\/1\n1 > Host: reqres.in\n1 > Connection: Keep-Alive\n1 > User-Agent: Apache-HttpClient\/4.5.13 (Java\/17.0.7)\n1 > Accept-Encoding: gzip,deflate\n\n\n14:08:04.403 response time in milliseconds: 456\n1 < 200\n1 < Date: Thu, 09 Nov 2023 08:38:02 GMT\n1 < Content-Type: application\/json; charset=utf-8\n1 < Transfer-Encoding: chunked\n1 < Connection: keep-alive\n1 < Report-To: {\"group\":\"heroku-nel\",\"max_age\":3600,\"endpoints\":[{\"url\":\"https:\/\/nel.heroku.com\/reports?ts=1699453317&sid=c4c9725f-1ab0-44d8-820f-430df2718e11&s=D82f1QlE%2F1D0g6bA3nP054usT3WzsL0lYuoQPNnLVYI%3D\"}]}\n1 < Reporting-Endpoints: heroku-nel=https:\/\/nel.heroku.com\/reports?ts=1699453317&sid=c4c9725f-1ab0-44d8-820f-430df2718e11&s=D82f1QlE%2F1D0g6bA3nP054usT3WzsL0lYuoQPNnLVYI%3D\n1 < Nel: {\"report_to\":\"heroku-nel\",\"max_age\":3600,\"success_fraction\":0.005,\"failure_fraction\":0.05,\"response_headers\":[\"Via\"]}\n1 < X-Powered-By: Express\n1 < Access-Control-Allow-Origin: *\n1 < Etag: W\/\"e4-2W7ZNEqb4DWjJCUXzZoMFmGhgio\"\n1 < Via: 1.1 vegur\n1 < Cache-Control: max-age=14400\n1 < CF-Cache-Status: REVALIDATED\n1 < Vary: Accept-Encoding\n1 < Server: cloudflare\n1 < CF-RAY: 8234bcb61d733f9d-BOM\n{\"data\":{\"id\":1,\"name\":\"cerulean\",\"year\":2000,\"color\":\"#98B2D1\",\"pantone_value\":\"15-4020\"},\"support\":{\"url\":\"https:\/\/reqres.in\/#support-heading\",\"text\":\"To keep ReqRes free, contributions towards server costs are appreciated!\"}}\n\n"},{"result":{"nanos":19000,"millis":0.019,"status":"passed"},"step":{"line":50,"prefix":"Then","index":3,"text":"status 200"}},{"result":{"nanos":128960901,"millis":128.960901,"status":"passed"},"step":{"line":51,"prefix":"*","index":4,"text":"print response"},"stepLog":"14:08:04.534 [print] {\n  \"data\": {\n    \"id\": 1,\n    \"name\": \"cerulean\",\n    \"year\": 2000,\n    \"color\": \"#98B2D1\",\n    \"pantone_value\": \"15-4020\"\n  },\n  \"support\": {\n    \"url\": \"https:\/\/reqres.in\/#support-heading\",\n    \"text\": \"To keep ReqRes free, contributions towards server costs are appreciated!\"\n  }\n}\n \n"},{"result":{"nanos":33114900,"millis":33.1149,"status":"passed"},"step":{"line":52,"prefix":"*","index":5,"text":"def jsonResponse = response"}},{"result":{"nanos":3613001,"millis":3.613001,"status":"passed"},"step":{"line":53,"prefix":"*","index":6,"text":"def actualName = jsonResponse.data.name"}},{"result":{"nanos":1991900,"millis":1.9919,"status":"passed"},"step":{"line":54,"prefix":"*","index":7,"text":"print actualName"},"stepLog":"14:08:04.574 [print] cerulean \n"}],"executorName":"main","line":46,"name":"Get user details and print the name using json","description":"","durationMillis":630.196203,"startTime":1699519083943,"failed":false,"refId":"[7:46]","endTime":1699519084574,"exampleIndex":-1},{"sectionIndex":7,"stepResults":[{"result":{"nanos":262100,"millis":0.2621,"status":"passed"},"step":{"line":57,"prefix":"Given","index":0,"text":"url 'https:\/\/reqres.in\/api\/users\/2'"}},{"result":{"nanos":457843601,"millis":457.843601,"status":"passed"},"step":{"line":58,"prefix":"When","index":1,"text":"method GET"},"stepLog":"14:08:04.585 request:\n1 > GET https:\/\/reqres.in\/api\/users\/2\n1 > Host: reqres.in\n1 > Connection: Keep-Alive\n1 > User-Agent: Apache-HttpClient\/4.5.13 (Java\/17.0.7)\n1 > Accept-Encoding: gzip,deflate\n\n\n14:08:05.039 response time in milliseconds: 454\n1 < 200\n1 < Date: Thu, 09 Nov 2023 08:38:02 GMT\n1 < Content-Type: application\/json; charset=utf-8\n1 < Transfer-Encoding: chunked\n1 < Connection: keep-alive\n1 < Report-To: {\"group\":\"heroku-nel\",\"max_age\":3600,\"endpoints\":[{\"url\":\"https:\/\/nel.heroku.com\/reports?ts=1699511642&sid=c4c9725f-1ab0-44d8-820f-430df2718e11&s=HitdWxhC2srAl%2Fd1j8LcW9aiMvDNDTZAUocc2ks%2FGG0%3D\"}]}\n1 < Reporting-Endpoints: heroku-nel=https:\/\/nel.heroku.com\/reports?ts=1699511642&sid=c4c9725f-1ab0-44d8-820f-430df2718e11&s=HitdWxhC2srAl%2Fd1j8LcW9aiMvDNDTZAUocc2ks%2FGG0%3D\n1 < Nel: {\"report_to\":\"heroku-nel\",\"max_age\":3600,\"success_fraction\":0.005,\"failure_fraction\":0.05,\"response_headers\":[\"Via\"]}\n1 < X-Powered-By: Express\n1 < Access-Control-Allow-Origin: *\n1 < Etag: W\/\"118-pbdwwFo9SKNhD3Lx5iHJyngpq00\"\n1 < Via: 1.1 vegur\n1 < Cache-Control: max-age=14400\n1 < CF-Cache-Status: REVALIDATED\n1 < Vary: Accept-Encoding\n1 < Server: cloudflare\n1 < CF-RAY: 8234bcba0e333e40-BOM\n{\"data\":{\"id\":2,\"email\":\"janet.weaver@reqres.in\",\"first_name\":\"Janet\",\"last_name\":\"Weaver\",\"avatar\":\"https:\/\/reqres.in\/img\/faces\/2-image.jpg\"},\"support\":{\"url\":\"https:\/\/reqres.in\/#support-heading\",\"text\":\"To keep ReqRes free, contributions towards server costs are appreciated!\"}}\n\n"},{"result":{"nanos":16900,"millis":0.0169,"status":"passed"},"step":{"line":59,"prefix":"Then","index":2,"text":"status 200"}},{"result":{"nanos":1183299,"millis":1.183299,"status":"passed"},"step":{"line":60,"prefix":"*","index":3,"text":"print response"},"stepLog":"14:08:05.041 [print] {\n  \"data\": {\n    \"id\": 2,\n    \"email\": \"janet.weaver@reqres.in\",\n    \"first_name\": \"Janet\",\n    \"last_name\": \"Weaver\",\n    \"avatar\": \"https:\/\/reqres.in\/img\/faces\/2-image.jpg\"\n  },\n  \"support\": {\n    \"url\": \"https:\/\/reqres.in\/#support-heading\",\n    \"text\": \"To keep ReqRes free, contributions towards server costs are appreciated!\"\n  }\n}\n \n"},{"result":{"nanos":362599,"millis":0.362599,"status":"passed"},"step":{"line":61,"prefix":"*","index":4,"text":"def jsonResponse = response"}},{"result":{"nanos":907099,"millis":0.907099,"status":"passed"},"step":{"line":62,"prefix":"*","index":5,"text":"def email = jsonResponse.data.email"}},{"result":{"nanos":1043000,"millis":1.043,"status":"passed"},"step":{"line":63,"prefix":"*","index":6,"text":"print email"},"stepLog":"14:08:05.044 [print] janet.weaver@reqres.in \n"},{"result":{"nanos":18709501,"millis":18.709501,"status":"passed"},"step":{"line":64,"prefix":"*","index":7,"text":"match email == 'janet.weaver@reqres.in'"}}],"executorName":"main","line":56,"name":"Get user details and verify user email using json path","description":"","durationMillis":480.328099,"startTime":1699519084581,"failed":false,"refId":"[8:56]","endTime":1699519085062,"exampleIndex":-1},{"sectionIndex":8,"stepResults":[{"result":{"nanos":241800,"millis":0.2418,"status":"passed"},"step":{"line":67,"prefix":"Given","index":0,"text":"url 'https:\/\/reqres.in\/api\/users\/2'"}},{"result":{"nanos":79943700,"millis":79.9437,"status":"passed"},"step":{"line":68,"prefix":"When","index":1,"text":"method GET"},"stepLog":"14:08:05.068 request:\n1 > GET https:\/\/reqres.in\/api\/users\/2\n1 > Host: reqres.in\n1 > Connection: Keep-Alive\n1 > User-Agent: Apache-HttpClient\/4.5.13 (Java\/17.0.7)\n1 > Accept-Encoding: gzip,deflate\n\n\n14:08:05.146 response time in milliseconds: 78\n1 < 200\n1 < Date: Thu, 09 Nov 2023 08:38:03 GMT\n1 < Content-Type: application\/json; charset=utf-8\n1 < Transfer-Encoding: chunked\n1 < Connection: keep-alive\n1 < X-Powered-By: Express\n1 < Access-Control-Allow-Origin: *\n1 < Etag: W\/\"118-pbdwwFo9SKNhD3Lx5iHJyngpq00\"\n1 < Via: 1.1 vegur\n1 < Cache-Control: max-age=14400\n1 < CF-Cache-Status: HIT\n1 < Age: 3627\n1 < Report-To: {\"endpoints\":[{\"url\":\"https:\\\/\\\/a.nel.cloudflare.com\\\/report\\\/v3?s=OAyAbo9rUMIQ3MrpDNBgS4KWQ8nh1reOVf5oKZg7w09xKyb43mUQkFoQowdI4V3eCTQugCCmmZ3MpM77zkDY0B8yPOrWy6h01KEMCVWsrOj9pNHnKIcdA5WQAA%3D%3D\"}],\"group\":\"cf-nel\",\"max_age\":604800}\n1 < NEL: {\"success_fraction\":0,\"report_to\":\"cf-nel\",\"max_age\":604800}\n1 < Vary: Accept-Encoding\n1 < Server: cloudflare\n1 < CF-RAY: 8234bcbd0a434461-BOM\n{\"data\":{\"id\":2,\"email\":\"janet.weaver@reqres.in\",\"first_name\":\"Janet\",\"last_name\":\"Weaver\",\"avatar\":\"https:\/\/reqres.in\/img\/faces\/2-image.jpg\"},\"support\":{\"url\":\"https:\/\/reqres.in\/#support-heading\",\"text\":\"To keep ReqRes free, contributions towards server costs are appreciated!\"}}\n\n"},{"result":{"nanos":1226300,"millis":1.2263,"status":"passed"},"step":{"line":69,"prefix":"*","index":2,"text":"print response"},"stepLog":"14:08:05.148 [print] {\n  \"data\": {\n    \"id\": 2,\n    \"email\": \"janet.weaver@reqres.in\",\n    \"first_name\": \"Janet\",\n    \"last_name\": \"Weaver\",\n    \"avatar\": \"https:\/\/reqres.in\/img\/faces\/2-image.jpg\"\n  },\n  \"support\": {\n    \"url\": \"https:\/\/reqres.in\/#support-heading\",\n    \"text\": \"To keep ReqRes free, contributions towards server costs are appreciated!\"\n  }\n}\n \n"},{"result":{"nanos":942400,"millis":0.9424,"status":"passed"},"step":{"line":70,"prefix":"*","index":3,"text":"def jsonResponse = response"}},{"result":{"nanos":8028300,"millis":8.0283,"status":"passed"},"step":{"line":71,"prefix":"*","index":4,"text":"def name = jsonResponse.data.first_name"}},{"result":{"nanos":2781800,"millis":2.7818,"status":"passed"},"step":{"line":72,"prefix":"*","index":5,"text":"print name"},"stepLog":"14:08:05.175 [print] Janet \n"},{"result":{"nanos":6832800,"errorMessage":"match failed: EQUALS\n  $ | not equal (STRING:STRING)\n  'Janet'\n  'Ishwar'\n\nsrc\/test\/java\/api.feature:73","millis":6.8328,"status":"failed"},"step":{"line":73,"prefix":"*","index":6,"text":"match name == 'Ishwar'"},"stepLog":"14:08:05.183 src\/test\/java\/api.feature:73\n* match name == 'Ishwar'\nmatch failed: EQUALS\n  $ | not equal (STRING:STRING)\n  'Janet'\n  'Ishwar'\n\nsrc\/test\/java\/api.feature:73\n"},{"result":{"nanos":0,"millis":0.0,"status":"skipped"},"step":{"line":74,"prefix":"Then","index":7,"text":"status 203"}}],"line":66,"description":"","durationMillis":99.9971,"failed":true,"error":"match failed: EQUALS\n  $ | not equal (STRING:STRING)\n  'Janet'\n  'Ishwar'\n\nsrc\/test\/java\/api.feature:73","executorName":"main","name":"Get user details and verify.If response is invalid get-Accepted is not equal","startTime":1699519085066,"refId":"[9:66]","endTime":1699519085183,"exampleIndex":-1}],"callDepth":0,"name":"Testing Reqres Endpoints","description":"","resultDate":"2023-11-09 02:08:05 pm","durationMillis":5457.390905,"passedCount":6}